<?xml version="1.0" encoding="UTF-8" standalone="no"?>
<!DOCTYPE svg  PUBLIC '-//W3C//DTD SVG 1.1//EN'  'http://www.w3.org/Graphics/SVG/1.1/DTD/svg11.dtd'>
<svg xmlns="http://www.w3.org/2000/svg">
<defs>
<font id="OpenSans-Extrabold" horiz-adv-x="1200">
<font-face underline-position="-103" font-weight="800" descent="-410" panose-1="2 11 9 6 3 8 4 2 2 4" units-per-em="2048" unicode-range="U+0020-2074" bbox="-434 -492 2097 1919" x-height="1133" underline-thickness="102" font-family="OpenSans" ascent="1638" cap-height="1462"/>
<missing-glyph horiz-adv-x="2048"/>
<glyph glyph-name=".notdef" horiz-adv-x="2048"/>
<glyph glyph-name=".null" horiz-adv-x="0"/>
<glyph glyph-name="nonmarkingreturn" horiz-adv-x="2048"/>
<glyph glyph-name="space" horiz-adv-x="532" unicode=" "/>
<glyph glyph-name="exclam" horiz-adv-x="594" unicode="!" d="M86 166q0 91 54 141.5t157 50.5q102 0 154.5 -50.5t52.5 -141.5q0 -90 -54.5 -140.5t-152.5 -50.5q-99 0 -155 50.5t-56 140.5zM463 516h-330l-51 946h432z"/>
<glyph glyph-name="quotedbl" horiz-adv-x="1073" unicode='&quot;' d="M952 1462l-41 -528h-274l-41 528h356zM477 1462l-41 -528h-274l-41 528h356z"/>
<glyph glyph-name="numbersign" horiz-adv-x="1356" unicode="#" d="M578 645h165l31 168h-166zM1042 813l-30 -168h243v-254h-290l-74 -391h-268l73 391h-168l-71 -391h-267l72 391h-225v254h274l31 168h-238v260h287l72 389h268l-74 -389h166l72 389h268l-73 -389h229v-260h-277z"/>
<glyph glyph-name="dollar" d="M504 68q-219 10 -422 98v332q116 -59 252 -98.5t239 -39.5q85 0 124.5 20.5t39.5 68.5q0 33 -28.5 56t-95 52t-179.5 70q-127 47 -205 105.5t-113.5 131t-35.5 180.5q0 165 106 258t318 115v137h207v-135q199 -11 401 -98l-119 -285q-209 94 -377 94q-80 0 -112.5 -19.5 t-32.5 -57.5q0 -33 23.5 -54.5t81.5 -48t161 -61.5q209 -74 300 -168.5t91 -243.5q0 -168 -106.5 -273t-310.5 -130v-193h-207v187z" unicode="$"/>
<glyph glyph-name="percent" horiz-adv-x="1942" unicode="%" d="M1903 444q0 -219 -99.5 -339.5t-281.5 -120.5q-172 0 -272.5 124.5t-100.5 335.5q0 220 98 338.5t275 118.5q175 0 278 -123t103 -334zM1450 440q0 -115 19 -166t57 -51q43 0 59.5 58.5t16.5 158.5t-16.5 158.5t-59.5 58.5q-39 0 -57.5 -52t-18.5 -165zM1520 1462 l-811 -1462h-297l811 1462h297zM791 1026q0 -220 -99 -340.5t-282 -120.5q-172 0 -272.5 124.5t-100.5 336.5q0 220 98 338.5t275 118.5q175 0 278 -123t103 -334zM338 1022q0 -115 19 -166t57 -51t56.5 50t18.5 167q0 115 -18.5 166t-56.5 51q-39 0 -57.5 -52t-18.5 -165z "/>
<glyph glyph-name="ampersand" horiz-adv-x="1636" unicode="&amp;" d="M770 1133q0 49 -28.5 70.5t-71.5 21.5q-42 0 -73.5 -25t-31.5 -80q0 -75 88 -155q57 32 87 76.5t30 91.5zM475 434q0 -63 45 -103t119 -40q57 0 100 15t66 34l-248 252q-82 -61 -82 -158zM1141 0l-99 102q-90 -57 -147.5 -78.5t-129 -32.5t-163.5 -11q-158 0 -279.5 54 t-186 151t-64.5 221q0 262 272 401q-62 70 -96.5 148.5t-34.5 177.5q0 160 123.5 254t339.5 94q211 0 328.5 -93.5t117.5 -254.5q0 -111 -63.5 -205.5t-200.5 -177.5l199 -189q75 115 104 260h406q-30 -138 -94.5 -276.5t-145.5 -237.5l320 -307h-506z"/>
<glyph glyph-name="quotesingle" horiz-adv-x="598" unicode="&apos;" d="M477 1462l-41 -528h-274l-41 528h356z"/>
<glyph glyph-name="parenleft" horiz-adv-x="735" unicode="(" d="M74 582q0 290 71 523t209 398h326q-126 -175 -194 -412t-68 -507q0 -261 66 -495.5t194 -412.5h-324q-137 158 -208.5 388t-71.5 518z"/>
<glyph glyph-name="parenright" horiz-adv-x="735" unicode=")" d="M662 582q0 -283 -71.5 -514.5t-209.5 -391.5h-324q126 172 193 408.5t67 499.5q0 265 -66 501.5t-196 417.5h326q139 -166 210 -402t71 -519z"/>
<glyph glyph-name="asterisk" horiz-adv-x="1100" unicode="*" d="M702 1556l-38 -352l356 101l37 -295l-314 -21l207 -278l-260 -138l-143 283l-123 -281l-272 136l206 278l-313 25l45 291l348 -101l-39 352h303z"/>
<glyph glyph-name="plus" horiz-adv-x="1159" unicode="+" d="M444 588h-372v268h372v367h269v-367h372v-268h-372v-361h-269v361z"/>
<glyph glyph-name="comma" horiz-adv-x="633" unicode="," d="M498 299l14 -23q-97 -381 -176 -561h-279q29 138 58.5 309.5t40.5 274.5h342z"/>
<glyph glyph-name="hyphen" horiz-adv-x="651" unicode="-" d="M43 393v312h565v-312h-565z"/>
<glyph glyph-name="period" horiz-adv-x="592" unicode="." d="M86 166q0 92 54.5 142t158.5 50q99 0 152 -50t53 -142q0 -90 -54.5 -140.5t-150.5 -50.5q-99 0 -156 50t-57 141z"/>
<glyph glyph-name="slash" horiz-adv-x="905" unicode="/" d="M901 1483l-545 -1503h-346l545 1503h346z"/>
<glyph glyph-name="zero" d="M465 729q0 -248 31 -341t104 -93q74 0 104.5 96t30.5 338q0 243 -31 340.5t-104 97.5t-104 -94t-31 -344zM1128 729q0 -388 -130 -568.5t-398 -180.5q-262 0 -395 188.5t-133 560.5q0 390 130 572t398 182q261 0 394.5 -189.5t133.5 -564.5z" unicode="0"/>
<glyph glyph-name="one" d="M942 0h-401v774q0 141 6 258q-37 -45 -92 -94l-166 -137l-205 252l502 409h356v-1462z" unicode="1"/>
<glyph glyph-name="two" d="M1122 0h-1061v260l357 361q153 160 200 218.5t65.5 100.5t18.5 88q0 57 -37 90t-104 33q-69 0 -139.5 -39.5t-159.5 -116.5l-217 254q113 101 190 144.5t167.5 66.5t203.5 23q142 0 253.5 -50t173 -142.5t61.5 -207.5q0 -86 -21.5 -159t-66.5 -143.5t-119.5 -148.5 t-317.5 -296v-10h553v-326z" unicode="2"/>
<glyph glyph-name="three" d="M1073 1145q0 -136 -83 -233.5t-240 -141.5v-6q366 -46 366 -346q0 -204 -161.5 -321t-448.5 -117q-118 0 -218.5 17t-217.5 62v328q96 -49 195.5 -72.5t183.5 -23.5q130 0 189.5 36.5t59.5 114.5q0 60 -31 92.5t-100 49t-180 16.5h-90v297h92q301 0 301 154 q0 58 -44.5 86t-119.5 28q-140 0 -290 -94l-164 264q116 80 237.5 114t278.5 34q227 0 356 -90t129 -248z" unicode="3"/>
<glyph glyph-name="four" d="M618 578v170q0 48 3.5 129.5t5.5 85.5h-11q-34 -77 -77 -144l-162 -241h241zM1169 283h-161v-283h-390v283h-583v290l608 889h365v-884h161v-295z" unicode="4"/>
<glyph glyph-name="five" d="M664 958q126 0 227.5 -58.5t158 -165.5t56.5 -247q0 -245 -147.5 -376t-446.5 -131q-256 0 -418 79v324q87 -40 196.5 -66t188.5 -26q110 0 169 46.5t59 137.5q0 84 -60 131t-182 47q-93 0 -201 -35l-145 72l55 772h834v-329h-498l-18 -193q78 15 111 16.5t61 1.5z" unicode="5"/>
<glyph glyph-name="six" d="M612 293q63 0 102.5 47.5t39.5 151.5q0 178 -138 178q-68 0 -110.5 -46t-42.5 -112q0 -96 41 -157.5t108 -61.5zM70 618q0 306 87.5 495.5t258 279.5t420.5 90q89 0 208 -17v-309q-100 19 -217 19q-198 0 -295 -87t-106 -284h12q90 170 289 170q195 0 302.5 -125.5 t107.5 -349.5q0 -241 -136 -380.5t-380 -139.5q-259 0 -405 168t-146 470z" unicode="6"/>
<glyph glyph-name="seven" d="M209 0l502 1133h-633v327h1055v-233l-515 -1227h-409z" unicode="7"/>
<glyph glyph-name="eight" d="M602 1198q-51 0 -86 -29.5t-35 -76.5q0 -86 117 -152q71 41 97 75t26 77q0 48 -35 77t-84 29zM430 401q0 -62 44 -99.5t122 -37.5q176 0 176 129q0 49 -38.5 96.5t-137.5 106.5q-89 -47 -127.5 -94.5t-38.5 -100.5zM604 1483q231 0 359.5 -93t128.5 -264 q0 -116 -60.5 -203.5t-191.5 -152.5q162 -92 228.5 -183.5t66.5 -197.5q0 -195 -141 -302t-394 -107q-258 0 -395 104.5t-137 300.5q0 127 61 216.5t205 162.5q-116 78 -169.5 167.5t-53.5 196.5q0 168 131 261.5t362 93.5z" unicode="8"/>
<glyph glyph-name="nine" d="M582 1161q-65 0 -105.5 -47t-40.5 -151q0 -82 35 -130.5t107 -48.5q65 0 113 47t48 113q0 89 -44.5 153t-112.5 64zM1133 793q0 -429 -185 -621t-592 -192q-134 0 -204 10v313q86 -16 172 -16q212 0 327 87.5t125 276.5h-12q-39 -72 -77 -104t-93 -49t-137 -17 q-190 0 -297 127t-107 350q0 243 138.5 381t379.5 138q268 0 415 -178t147 -506z" unicode="9"/>
<glyph glyph-name="colon" horiz-adv-x="592" unicode=":" d="M86 956q0 91 55 141t158 50q99 0 152 -50t53 -141q0 -90 -54 -141t-151 -51q-102 0 -157.5 51t-55.5 141zM86 166q0 92 54.5 142t158.5 50q99 0 152 -50t53 -142q0 -90 -54.5 -140.5t-150.5 -50.5q-99 0 -156 50t-57 141z"/>
<glyph glyph-name="semicolon" horiz-adv-x="608" unicode=";" d="M92 956q0 91 53.5 141t157.5 50q100 0 153.5 -50.5t53.5 -140.5t-54 -141t-153 -51q-102 0 -156.5 50.5t-54.5 141.5zM498 299l14 -23q-97 -381 -176 -561h-279q29 138 58.5 309.5t40.5 274.5h342z"/>
<glyph glyph-name="less" horiz-adv-x="1159" unicode="&lt;" d="M1083 178l-1011 449v172l1011 506v-297l-620 -283l620 -252v-295z"/>
<glyph glyph-name="equal" horiz-adv-x="1159" unicode="=" d="M72 358v271h1015v-271h-1015zM72 815v268h1015v-268h-1015z"/>
<glyph glyph-name="greater" horiz-adv-x="1159" unicode="&gt;" d="M72 473l620 252l-620 283v297l1011 -506v-172l-1011 -449v295z"/>
<glyph glyph-name="question" horiz-adv-x="1034" unicode="?" d="M252 166q0 92 53.5 142t157.5 50q100 0 153.5 -50.5t53.5 -141.5t-55.5 -141t-151.5 -50q-99 0 -155 49.5t-56 141.5zM295 516v86q0 98 40 165.5t142 131.5q81 51 116.5 92t35.5 94q0 42 -38 66.5t-99 24.5q-151 0 -353 -107l-139 272q249 142 520 142q223 0 350 -98 t127 -267q0 -121 -56.5 -209.5t-180.5 -167.5q-105 -68 -131.5 -99.5t-26.5 -74.5v-51h-307z"/>
<glyph glyph-name="at" horiz-adv-x="1837" unicode="@" d="M760 641q0 -100 36.5 -145t96.5 -45q77 0 113 62t47 220l10 156q-40 6 -68 6q-108 0 -171.5 -67t-63.5 -187zM1755 756q0 -141 -48.5 -263t-134.5 -191t-196 -69q-79 0 -143 31.5t-100 87.5h-15q-107 -119 -260 -119q-183 0 -281 107t-98 299q0 141 62 249.5t179 167 t271 58.5q81 0 178.5 -16.5t178.5 -44.5l-21 -422l-2 -94q0 -86 49 -86q52 0 84.5 87t32.5 220q0 239 -135 369t-383 130q-190 0 -330.5 -79t-214.5 -226.5t-74 -345.5q0 -255 142.5 -393.5t402.5 -138.5q116 0 250.5 25t263.5 71v-229q-224 -95 -500 -95 q-388 0 -609.5 202.5t-221.5 561.5q0 253 114.5 453.5t316 309t456.5 108.5q234 0 413.5 -89t276 -253.5t96.5 -382.5z"/>
<glyph glyph-name="A" horiz-adv-x="1487" unicode="A" d="M901 598l-63 240q-22 80 -53.5 207t-41.5 182q-9 -51 -35.5 -168t-117.5 -461h311zM1055 0l-72 274h-475l-74 -274h-434l477 1468h527l483 -1468h-432z"/>
<glyph glyph-name="B" horiz-adv-x="1380" unicode="B" d="M553 612v-307h139q185 0 185 156q0 73 -49.5 112t-143.5 39h-131zM553 901h119q85 0 131.5 35t46.5 104q0 123 -186 123h-111v-262zM158 1462h510q298 0 442.5 -88.5t144.5 -275.5q0 -123 -63 -210t-166 -112v-10q136 -36 197 -120t61 -218q0 -199 -149.5 -313.5 t-407.5 -114.5h-569v1462z"/>
<glyph glyph-name="C" horiz-adv-x="1329" unicode="C" d="M809 1159q-141 0 -220 -115.5t-79 -318.5q0 -422 321 -422q97 0 188 27t183 65v-334q-183 -81 -414 -81q-331 0 -507.5 192t-176.5 555q0 227 85.5 399t246 264.5t377.5 92.5q237 0 453 -103l-121 -311q-81 38 -162 64t-174 26z"/>
<glyph glyph-name="D" horiz-adv-x="1503" unicode="D" d="M989 748q0 201 -79.5 298t-241.5 97h-115v-819h88q180 0 264 104.5t84 319.5zM1399 762q0 -366 -201.5 -564t-566.5 -198h-473v1462h506q352 0 543.5 -180t191.5 -520z"/>
<glyph glyph-name="E" horiz-adv-x="1124" unicode="E" d="M1026 0h-868v1462h868v-317h-473v-230h438v-317h-438v-276h473v-322z"/>
<glyph glyph-name="F" horiz-adv-x="1104" unicode="F" d="M547 0h-389v1462h864v-317h-475v-279h438v-317h-438v-549z"/>
<glyph glyph-name="G" horiz-adv-x="1516" unicode="G" d="M745 856h631v-788q-257 -88 -565 -88q-338 0 -522.5 196t-184.5 559q0 354 202 551t566 197q138 0 260.5 -26t213.5 -66l-125 -310q-158 78 -347 78q-173 0 -267.5 -112.5t-94.5 -321.5q0 -205 85.5 -312.5t246.5 -107.5q88 0 162 17v229h-261v305z"/>
<glyph glyph-name="H" horiz-adv-x="1569" unicode="H" d="M1411 0h-397v596h-459v-596h-397v1462h397v-542h459v542h397v-1462z"/>
<glyph glyph-name="I" horiz-adv-x="713" unicode="I" d="M158 0v1462h397v-1462h-397z"/>
<glyph glyph-name="J" horiz-adv-x="721" unicode="J" d="M43 -459q-108 0 -205 21v307q32 -6 68 -13.5t78 -7.5q98 0 140 59t42 202v1353h397v-1319q0 -297 -130 -449.5t-390 -152.5z"/>
<glyph glyph-name="K" horiz-adv-x="1407" unicode="K" d="M1407 0h-446l-289 559l-117 -70v-489h-397v1462h397v-635q30 59 121 187l307 448h432l-461 -655z"/>
<glyph glyph-name="L" horiz-adv-x="1192" unicode="L" d="M158 0v1462h395v-1143h563v-319h-958z"/>
<glyph glyph-name="M" horiz-adv-x="1980" unicode="M" d="M795 0l-299 1053h-9q21 -269 21 -418v-635h-350v1462h526l305 -1038h8l299 1038h527v-1462h-363v641q0 50 1.5 111t13.5 299h-9l-295 -1051h-376z"/>
<glyph glyph-name="N" horiz-adv-x="1708" unicode="N" d="M1550 0h-518l-534 1030h-9q19 -243 19 -371v-659h-350v1462h516l532 -1016h6q-14 221 -14 355v661h352v-1462z"/>
<glyph glyph-name="O" horiz-adv-x="1632" unicode="O" d="M520 733q0 -424 295 -424q150 0 222.5 103t72.5 321q0 219 -73.5 323.5t-219.5 104.5q-297 0 -297 -428zM1526 733q0 -369 -181 -561t-530 -192q-344 0 -527.5 193t-183.5 562q0 365 182.5 557.5t530.5 192.5q349 0 529 -191t180 -561z"/>
<glyph glyph-name="P" horiz-adv-x="1294" unicode="P" d="M553 807h72q89 0 141.5 50t52.5 138q0 148 -164 148h-102v-336zM1219 997q0 -245 -144.5 -378.5t-410.5 -133.5h-111v-485h-395v1462h506q277 0 416 -121t139 -344z"/>
<glyph glyph-name="Q" horiz-adv-x="1632" unicode="Q" d="M520 733q0 -424 295 -424q150 0 222.5 103t72.5 321q0 219 -73.5 323.5t-219.5 104.5q-297 0 -297 -428zM1526 733q0 -497 -316 -670l357 -411h-492l-258 325l-1 1v1l-1 1q-344 0 -527.5 193t-183.5 562q0 365 182.5 557.5t530.5 192.5q349 0 529 -191t180 -561z"/>
<glyph glyph-name="R" horiz-adv-x="1386" unicode="R" d="M553 829h74q207 0 207 183q0 151 -203 151h-78v-334zM553 532v-532h-395v1462h479q596 0 596 -432q0 -254 -248 -393l426 -637h-448l-310 532h-100z"/>
<glyph glyph-name="S" horiz-adv-x="1182" unicode="S" d="M1114 444q0 -136 -69 -241.5t-199 -164t-305 -58.5q-146 0 -245 20.5t-206 71.5v352q113 -58 235 -90.5t224 -32.5q88 0 129 30.5t41 78.5q0 30 -16.5 52.5t-53 45.5t-194.5 94q-143 65 -214.5 126t-106 140t-34.5 187q0 202 147 315t404 113q227 0 463 -105l-121 -305 q-205 94 -354 94q-77 0 -112 -27t-35 -67q0 -43 44.5 -77t241.5 -124q189 -85 262.5 -182.5t73.5 -245.5z"/>
<glyph glyph-name="T" horiz-adv-x="1210" unicode="T" d="M803 0h-395v1139h-357v323h1108v-323h-356v-1139z"/>
<glyph glyph-name="U" horiz-adv-x="1550" unicode="U" d="M1401 1462v-880q0 -287 -162.5 -444.5t-468.5 -157.5q-299 0 -459.5 153t-160.5 440v889h397v-858q0 -155 58 -225t171 -70q121 0 175.5 69.5t54.5 227.5v856h395z"/>
<glyph glyph-name="V" horiz-adv-x="1421" unicode="V" d="M979 1462h442l-479 -1462h-465l-477 1462h444l199 -741q62 -247 68 -344q7 70 28 175t37 165z"/>
<glyph glyph-name="W" horiz-adv-x="2128" unicode="W" d="M1737 0h-467l-140 637q-10 40 -31.5 159t-31.5 199q-8 -65 -26 -161.5t-35.5 -177.5t-145.5 -656h-467l-362 1462h381l159 -733q54 -243 74 -387q13 102 46.5 277t62.5 290l129 553h366l125 -553q32 -133 65 -307t44 -260q13 111 71 385l162 735h381z"/>
<glyph glyph-name="X" horiz-adv-x="1481" unicode="X" d="M1475 0h-457l-285 457l-282 -457h-447l485 748l-456 714h438l264 -452l254 452h451l-463 -745z"/>
<glyph glyph-name="Y" horiz-adv-x="1360" unicode="Y" d="M680 920l252 542h428l-481 -891v-571h-398v559l-481 903h430z"/>
<glyph glyph-name="Z" horiz-adv-x="1251" unicode="Z" d="M1200 0h-1139v244l633 899h-618v319h1108v-243l-633 -900h649v-319z"/>
<glyph glyph-name="bracketleft" horiz-adv-x="664" unicode="[" d="M616 -344h-499v1847h499v-254h-182v-1339h182v-254z"/>
<glyph glyph-name="backslash" horiz-adv-x="905" unicode="\" d="M352 1483l545 -1503h-346l-545 1503h346z"/>
<glyph glyph-name="bracketright" horiz-adv-x="664" unicode="]" d="M47 -90h182v1339h-182v254h500v-1847h-500v254z"/>
<glyph glyph-name="asciicircum" horiz-adv-x="1075" unicode="^" d="M-16 502l440 966h170l508 -966h-295l-289 577l-124 -291l-124 -286h-286z"/>
<glyph glyph-name="underscore" horiz-adv-x="1024" unicode="_" d="M1028 -379h-1032v246h1032v-246z"/>
<glyph glyph-name="grave" horiz-adv-x="1225" unicode="`" d="M696 1241q-69 44 -203.5 138.5t-228.5 168.5v21h430q52 -70 203 -233l59 -66v-29h-260z"/>
<glyph glyph-name="a" horiz-adv-x="1276" unicode="a" d="M584 256q71 0 121.5 45t50.5 117v88l-90 -4q-193 -7 -193 -142q0 -104 111 -104zM874 0l-75 150h-8q-79 -98 -161 -134t-212 -36q-160 0 -252 96t-92 270q0 181 126 269.5t365 99.5l189 6v16q0 140 -138 140q-124 0 -315 -84l-113 258q198 102 500 102q218 0 337.5 -108 t119.5 -302v-743h-271z"/>
<glyph glyph-name="b" horiz-adv-x="1317" unicode="b" d="M684 846q-82 0 -120 -57t-38 -179v-55q0 -139 38 -199.5t124 -60.5q69 0 106 70.5t37 207.5q0 273 -147 273zM827 1153q185 0 293.5 -155t108.5 -429q0 -276 -109.5 -432.5t-304.5 -156.5q-63 0 -112 13.5t-87.5 37.5t-89.5 80h-24l-62 -111h-305v1556h391v-352 q0 -63 -14 -217h14q57 88 131.5 127t169.5 39z"/>
<glyph glyph-name="c" horiz-adv-x="1104" unicode="c" d="M651 -20q-278 0 -421.5 150t-143.5 431q0 282 155 437t441 155q197 0 371 -86l-115 -289q-71 31 -131 49.5t-125 18.5q-95 0 -147 -74t-52 -209q0 -272 201 -272q172 0 330 100v-311q-151 -100 -363 -100z"/>
<glyph glyph-name="d" horiz-adv-x="1317" unicode="d" d="M647 289q94 0 132.5 59t41.5 182v31q0 150 -43 213.5t-135 63.5q-77 0 -119.5 -72.5t-42.5 -206.5q0 -132 43 -201t123 -69zM487 -20q-121 0 -211.5 69t-140 203t-49.5 313q0 276 111 432t305 156q95 0 166.5 -38t130.5 -128h8q-19 133 -19 266v303h394v-1556h-295 l-84 143h-15q-101 -163 -301 -163z"/>
<glyph glyph-name="e" horiz-adv-x="1266" unicode="e" d="M659 887q-69 0 -115.5 -43.5t-54.5 -136.5h336q-2 82 -46.5 131t-119.5 49zM682 -20q-283 0 -439.5 150.5t-156.5 428.5q0 287 145 440.5t414 153.5q256 0 395.5 -133.5t139.5 -384.5v-174h-699q4 -95 69.5 -149t178.5 -54q103 0 189.5 19.5t187.5 66.5v-281 q-92 -47 -190 -65t-234 -18z"/>
<glyph glyph-name="f" horiz-adv-x="846" unicode="f" d="M827 840h-241v-840h-391v840h-150v192l158 96v19q0 224 91.5 322t293.5 98q78 0 147.5 -12t161.5 -42l-84 -253q-72 20 -141 20q-45 0 -65.5 -27.5t-20.5 -89.5v-30h241v-293z"/>
<glyph glyph-name="g" horiz-adv-x="1241" unicode="g" d="M473 762q0 -174 121 -174q56 0 86.5 43t30.5 129q0 176 -117 176q-121 0 -121 -174zM350 -141q0 -48 52 -77.5t139 -29.5q142 0 227.5 35.5t85.5 91.5q0 45 -52 63.5t-149 18.5h-153q-63 0 -106.5 -29.5t-43.5 -72.5zM1204 1133v-189l-155 -57q32 -58 32 -135 q0 -183 -128.5 -284t-383.5 -101q-63 0 -100 8q-14 -26 -14 -49q0 -29 47 -44.5t123 -15.5h188q381 0 381 -321q0 -207 -176.5 -322t-495.5 -115q-241 0 -371.5 80.5t-130.5 231.5q0 203 252 262q-52 22 -90.5 71t-38.5 97q0 53 29 93.5t121 96.5q-88 39 -138.5 122 t-50.5 202q0 185 126 287t360 102q31 0 107 -7t112 -13h395z"/>
<glyph glyph-name="h" horiz-adv-x="1372" unicode="h" d="M848 0v618q0 228 -135 228q-96 0 -141.5 -80.5t-45.5 -267.5v-498h-391v1556h391v-221q0 -150 -16 -342h18q56 88 133 124t179 36q190 0 295.5 -109.5t105.5 -306.5v-737h-393z"/>
<glyph glyph-name="i" horiz-adv-x="666" unicode="i" d="M127 1415q0 88 49 131t158 43t159 -44t50 -130q0 -172 -209 -172q-207 0 -207 172zM528 0h-391v1133h391v-1133z"/>
<glyph glyph-name="j" horiz-adv-x="664" unicode="j" d="M125 1415q0 88 49 131t158 43t159 -44t50 -130q0 -172 -209 -172q-207 0 -207 172zM106 -492q-48 0 -110.5 7.5t-99.5 17.5v305q64 -18 120 -18q119 0 119 170v1143h391v-1225q0 -187 -109.5 -293.5t-310.5 -106.5z"/>
<glyph glyph-name="k" horiz-adv-x="1350" unicode="k" d="M514 637q71 113 121 176l254 320h436l-393 -482l418 -651h-447l-248 406l-127 -97v-309h-393v1556h393v-612q0 -157 -22 -307h8z"/>
<glyph glyph-name="l" horiz-adv-x="662" unicode="l" d="M526 0h-391v1556h391v-1556z"/>
<glyph glyph-name="m" horiz-adv-x="2048" unicode="m" d="M1526 0v616q0 115 -31.5 172.5t-99.5 57.5q-90 0 -132 -77t-42 -241v-528h-392v616q0 115 -30 172.5t-97 57.5q-92 0 -134 -82t-42 -268v-496h-391v1133h295l49 -140h23q45 78 130.5 119t194.5 41q245 0 344 -149h31q48 70 133.5 109.5t188.5 39.5q201 0 297 -103 t96 -313v-737h-391z"/>
<glyph glyph-name="n" horiz-adv-x="1372" unicode="n" d="M850 0v618q0 113 -32.5 170.5t-104.5 57.5q-99 0 -143 -79t-44 -271v-496h-391v1133h295l49 -140h23q50 80 138.5 120t203.5 40q188 0 292.5 -109t104.5 -307v-737h-391z"/>
<glyph glyph-name="o" horiz-adv-x="1305" unicode="o" d="M483 569q0 -146 39 -222.5t131 -76.5q91 0 128.5 76.5t37.5 222.5q0 145 -38 219t-130 74q-90 0 -129 -73.5t-39 -219.5zM1217 569q0 -278 -149.5 -433.5t-418.5 -155.5q-258 0 -410.5 159t-152.5 430q0 277 149.5 430.5t419.5 153.5q167 0 295 -71t197.5 -203.5 t69.5 -309.5z"/>
<glyph glyph-name="p" horiz-adv-x="1317" unicode="p" d="M684 846q-86 0 -120.5 -61.5t-37.5 -182.5v-31q0 -146 39 -211t123 -65q75 0 109 64.5t34 213.5q0 146 -34 209.5t-113 63.5zM815 -20q-86 0 -154 28.5t-135 102.5h-18q18 -119 18 -148v-455h-391v1625h318l55 -144h18q109 164 301 164q188 0 295 -156t107 -428 q0 -274 -111.5 -431.5t-302.5 -157.5z"/>
<glyph glyph-name="q" horiz-adv-x="1317" unicode="q" d="M651 283q89 0 129.5 55t40.5 186v47q0 150 -41 214.5t-135 64.5q-162 0 -162 -291q0 -148 41 -212t127 -64zM492 -20q-190 0 -298 156t-108 429q0 276 110.5 432t301.5 156q205 0 309 -160h8l29 140h338v-1625h-391v469q0 34 12 166h-12q-96 -163 -299 -163z"/>
<glyph glyph-name="r" horiz-adv-x="961" unicode="r" d="M819 1153q51 0 97 -8l22 -4l-35 -369q-48 12 -133 12q-128 0 -186 -58.5t-58 -168.5v-557h-391v1133h291l61 -181h19q49 90 136.5 145.5t176.5 55.5z"/>
<glyph glyph-name="s" horiz-adv-x="1092" unicode="s" d="M1010 348q0 -182 -124 -275t-356 -93q-126 0 -219 13.5t-190 49.5v313q91 -40 199.5 -66t193.5 -26q127 0 127 58q0 30 -35.5 53.5t-206.5 91.5q-156 64 -218 145.5t-62 206.5q0 158 122 246t345 88q112 0 210.5 -24.5t204.5 -71.5l-106 -252q-78 35 -165 59.5t-142 24.5 q-96 0 -96 -47q0 -29 33.5 -49.5t193.5 -83.5q119 -49 177.5 -96t86 -110.5t27.5 -154.5z"/>
<glyph glyph-name="t" horiz-adv-x="942" unicode="t" d="M690 289q79 0 189 39v-285q-79 -34 -150.5 -48.5t-167.5 -14.5q-197 0 -284 96.5t-87 296.5v467h-137v159l174 123l101 238h256v-227h278v-293h-278v-441q0 -110 106 -110z"/>
<glyph glyph-name="u" horiz-adv-x="1372" unicode="u" d="M942 0l-49 141h-23q-49 -78 -136.5 -119.5t-205.5 -41.5q-187 0 -291 108.5t-104 306.5v738h391v-619q0 -111 31.5 -168t103.5 -57q101 0 144 79.5t43 268.5v496h391v-1133h-295z"/>
<glyph glyph-name="v" horiz-adv-x="1251" unicode="v" d="M432 0l-432 1133h408l192 -670q1 -5 4 -17t6 -28.5t5.5 -35t2.5 -34.5h7q0 52 18 113l201 672h407l-432 -1133h-387z"/>
<glyph glyph-name="w" horiz-adv-x="1864" unicode="w" d="M1110 0l-128 540l-30 163l-20 131h-6q-49 -280 -66 -353l-115 -481h-411l-309 1133h385l92 -435q44 -224 51 -372h6q3 92 55 350l105 457h432l96 -463q46 -221 58 -344h6q6 76 20 189.5t31 182.5l100 435h377l-311 -1133h-418z"/>
<glyph glyph-name="x" horiz-adv-x="1290" unicode="x" d="M375 578l-346 555h444l172 -318l176 318h445l-355 -555l369 -578h-444l-191 344l-190 -344h-445z"/>
<glyph glyph-name="y" horiz-adv-x="1249" unicode="y" d="M-2 1133h412l192 -650q14 -51 19 -123h8q8 69 24 121l197 652h399l-448 -1205q-86 -230 -211.5 -325t-327.5 -95q-78 0 -160 17v307q53 -12 121 -12q52 0 91 20t68 56.5t62 119.5z"/>
<glyph glyph-name="z" horiz-adv-x="1038" unicode="z" d="M987 0h-938v223l469 611h-442v299h889v-242l-449 -592h471v-299z"/>
<glyph glyph-name="braceleft" horiz-adv-x="887" unicode="{" d="M61 719q115 0 180.5 44.5t65.5 125.5v254q0 139 49 208t159.5 100.5t305.5 31.5v-279q-89 -3 -120.5 -13.5t-50.5 -32.5t-19 -60v-271q0 -113 -56.5 -173.5t-183.5 -78.5v-12q128 -20 184 -79t56 -167v-276q0 -39 21 -61t56 -32.5t113 -13.5v-278q-197 0 -307 32 t-158.5 101.5t-48.5 210.5v248q0 80 -67 125t-179 45v301z"/>
<glyph glyph-name="bar" horiz-adv-x="1042" unicode="|" d="M387 1556h268v-2002h-268v2002z"/>
<glyph glyph-name="braceright" horiz-adv-x="887" unicode="}" d="M825 418q-111 0 -178 -45t-67 -125v-248q0 -140 -49 -210t-159 -102t-306 -32v278q108 4 149 29.5t41 77.5v276q0 108 56 167t184 79v12q-127 18 -183.5 78.5t-56.5 173.5v271q0 39 -19.5 60.5t-50 32t-120.5 13.5v279q196 0 306 -31.5t159 -100.5t49 -208v-254 q0 -81 65 -125.5t180 -44.5v-301z"/>
<glyph glyph-name="asciitilde" horiz-adv-x="1159" unicode="~" d="M305 647q-110 0 -233 -121v281q104 108 264 108q69 0 130 -13.5t150 -49.5q131 -55 238 -55q50 0 112.5 32t118.5 89v-281q-105 -109 -264 -109q-71 0 -133.5 15t-146.5 49q-131 55 -236 55z"/>
<glyph glyph-name="nonbreakingspace" horiz-adv-x="532" unicode=" "/>
<glyph glyph-name="exclamdown" horiz-adv-x="594" unicode="¡" d="M510 963q0 -91 -53.5 -142t-157.5 -51q-102 0 -154.5 50.5t-52.5 142.5q0 90 54 140t153 50q101 0 156 -50.5t55 -139.5zM133 612h330l51 -946h-432z"/>
<glyph glyph-name="cent" d="M565 1483h207v-154q171 -9 324 -84l-115 -289q-71 31 -131 49.5t-125 18.5q-95 0 -147 -74t-52 -209q0 -272 201 -272q172 0 330 100v-311q-127 -82 -285 -98v-180h-207v186q-212 31 -324 176t-112 397q0 240 113 388.5t323 189.5v166z" unicode="¢"/>
<glyph glyph-name="sterling" d="M723 1485q210 0 405 -82l-110 -289q-148 55 -252 55q-58 0 -85.5 -33t-27.5 -104v-106h344v-277h-344v-96q0 -150 -159 -227h671v-326h-1061v313q81 47 109.5 76.5t41.5 67.5t13 94v98h-166v277h166v118q0 215 117 328t338 113z" unicode="£"/>
<glyph glyph-name="currency" horiz-adv-x="1159" unicode="¤" d="M436 723q0 -56 40.5 -95.5t94.5 -39.5q58 0 100 38.5t42 96.5t-42 97.5t-100 39.5q-56 0 -95.5 -40.5t-39.5 -96.5zM180 723q0 89 41 176l-125 119l180 182l123 -123q84 41 172 41q91 0 177 -45l120 127l185 -174l-127 -125q41 -76 41 -178q0 -94 -41 -176l121 -119 l-179 -178l-120 119q-89 -39 -177 -39q-100 0 -176 37l-119 -115l-178 178l123 119q-41 82 -41 174z"/>
<glyph glyph-name="yen" d="M600 958l193 504h399l-363 -712h195v-211h-242v-117h242v-209h-242v-213h-364v213h-246v209h246v117h-246v211h190l-354 712h400z" unicode="¥"/>
<glyph glyph-name="brokenbar" horiz-adv-x="1042" unicode="¦" d="M387 393h268v-839h-268v839zM387 1556h268v-839h-268v839z"/>
<glyph glyph-name="section" horiz-adv-x="1024" unicode="§" d="M397 834q0 -51 44 -91t155 -98q41 47 41 107q0 57 -42 100t-140 84q-58 -32 -58 -102zM106 803q0 64 43 125t121 108q-141 102 -141 246q0 137 111 216t295 79q191 0 370 -86l-98 -221q-73 40 -146.5 63t-128.5 23q-108 0 -108 -74q0 -43 45.5 -79t128.5 -70 q175 -71 252.5 -152t77.5 -178q0 -77 -32 -137.5t-116 -120.5q125 -94 125 -244q0 -149 -116.5 -237.5t-319.5 -88.5q-204 0 -352 86v244q79 -44 182 -76t172 -32q139 0 139 96q0 42 -31 72.5t-139 78.5q-141 63 -205.5 112t-96.5 108t-32 139z"/>
<glyph glyph-name="dieresis" horiz-adv-x="1233" unicode="¨" d="M702 1413q0 75 46 116.5t126 41.5t126.5 -43t46.5 -115q0 -71 -46.5 -113.5t-126.5 -42.5q-81 0 -126.5 41.5t-45.5 114.5zM223 1413q0 75 46 116.5t124 41.5q79 0 125.5 -42.5t46.5 -115.5q0 -71 -46.5 -113.5t-125.5 -42.5q-78 0 -124 41t-46 115z"/>
<glyph glyph-name="copyright" horiz-adv-x="1688" unicode="©" d="M256 731q0 -158 79.5 -295.5t215.5 -215t293 -77.5q158 0 294 78.5t215 215t79 294.5q0 157 -77.5 293t-214 215.5t-296.5 79.5q-158 0 -294.5 -78.5t-215 -215t-78.5 -294.5zM92 731q0 200 100 375t275 276t377 101q197 0 370 -97t277 -272t104 -383 q0 -204 -100.5 -376.5t-273 -273.5t-377.5 -101q-207 0 -382 103.5t-272.5 276.5t-97.5 371zM887 971q-81 0 -126.5 -61t-45.5 -179q0 -128 43.5 -185t134.5 -57q138 0 258 68v-231q-126 -64 -272 -64q-212 0 -328.5 124t-116.5 349q0 217 113 340t321 123q166 0 322 -78 l-92 -205q-106 56 -211 56z"/>
<glyph glyph-name="ordfeminine" horiz-adv-x="813" unicode="ª" d="M301 979q0 -32 18 -50t52 -18q50 0 80 38.5t30 97.5v22l-84 -6q-96 -6 -96 -84zM571 741l-45 127q-48 -76 -104.5 -107.5t-138.5 -31.5q-109 0 -171.5 63.5t-62.5 174.5q0 116 77 171t267 64l88 4v6q0 41 -25.5 58.5t-76.5 17.5q-57 0 -107.5 -15t-103.5 -40l-76 166 q108 51 180.5 65.5t163.5 14.5q139 0 218 -75.5t79 -213.5v-449h-162z"/>
<glyph glyph-name="guillemotleft" horiz-adv-x="1395" unicode="«" d="M649 588l387 483l283 -149l-275 -347l275 -348l-283 -147l-387 481v27zM74 588l389 483l280 -149l-272 -347l272 -348l-280 -147l-389 481v27z"/>
<glyph glyph-name="logicalnot" horiz-adv-x="1159" unicode="¬" d="M1085 238h-270v350h-743v268h1013v-618z"/>
<glyph glyph-name="uni00AD" horiz-adv-x="651" unicode="­" d="M43 393v312h565v-312h-565z"/>
<glyph glyph-name="registered" horiz-adv-x="1688" unicode="®" d="M256 731q0 -158 79.5 -295.5t215.5 -215t293 -77.5q158 0 294 78.5t215 215t79 294.5q0 157 -77.5 293t-214 215.5t-296.5 79.5q-158 0 -294.5 -78.5t-215 -215t-78.5 -294.5zM92 731q0 200 100 375t275 276t377 101q197 0 370 -97t277 -272t104 -383 q0 -204 -100.5 -376.5t-273 -273.5t-377.5 -101q-207 0 -382 103.5t-272.5 276.5t-97.5 371zM786 809h11q58 0 91.5 21.5t33.5 76.5q0 47 -27.5 66.5t-95.5 19.5h-13v-184zM1204 918q0 -87 -33 -146.5t-108 -95.5l194 -363h-290l-146 320h-35v-320h-280v875h291 q407 0 407 -270z"/>
<glyph glyph-name="overscore" horiz-adv-x="1024" unicode="¯" d="M1030 1556h-1036v246h1036v-246z"/>
<glyph glyph-name="degree" horiz-adv-x="864" unicode="°" d="M301 1114q0 -50 38.5 -88.5t92.5 -38.5t92.5 39t38.5 88q0 52 -37.5 92.5t-93.5 40.5t-93.5 -40.5t-37.5 -92.5zM63 1114q0 97 49 182.5t135 136t185 50.5t185 -50.5t135 -135.5t49 -183q0 -97 -48.5 -181t-134 -133.5t-186.5 -49.5q-99 0 -185 49t-135 133t-49 182z"/>
<glyph glyph-name="plusminus" horiz-adv-x="1159" unicode="±" d="M72 0v268h1013v-268h-1013zM444 684h-372v268h372v367h269v-367h372v-268h-372v-360h-269v360z"/>
<glyph glyph-name="twosuperior" horiz-adv-x="817" unicode="²" d="M750 586h-674v207l215 213q84 84 116.5 129t32.5 79q0 58 -65 58q-81 0 -172 -88l-142 166q80 73 167.5 104t203.5 31q142 0 219.5 -63t77.5 -175q0 -46 -13 -87t-40.5 -84.5t-74.5 -91t-198 -173.5h347v-225z"/>
<glyph glyph-name="threesuperior" horiz-adv-x="817" unicode="³" d="M725 1266q0 -78 -37 -132.5t-125 -86.5v-9q97 -24 144 -76t47 -139q0 -120 -98 -187t-277 -67q-185 0 -309 70v233q117 -81 297 -81q116 0 116 67q0 41 -32.5 56.5t-102.5 15.5h-104v194h80q71 0 105 18.5t34 59.5q0 25 -21 46.5t-71 21.5t-94 -17t-97 -57l-117 170 q149 115 343 115q146 0 232.5 -57.5t86.5 -157.5z"/>
<glyph glyph-name="acute" horiz-adv-x="1225" unicode="´" d="M264 1241v29q154 165 195.5 213t68.5 86h428v-21q-80 -64 -220 -163t-212 -144h-260z"/>
<glyph glyph-name="mu" horiz-adv-x="1376" unicode="µ" d="M526 518q0 -115 33.5 -172t112.5 -57q93 0 134.5 83t41.5 265v496h393v-1133h-293l-53 152h-16q-34 -88 -90.5 -130t-122.5 -42q-56 0 -90 20t-62 63q12 -90 12 -235v-320h-391v1625h391v-615z"/>
<glyph glyph-name="paragraph" horiz-adv-x="1317" unicode="¶" d="M1186 -260h-191v1587h-157v-1587h-191v819q-54 -18 -125 -18q-216 0 -318 125t-102 376q0 256 107.5 385t343.5 129h633v-1816z"/>
<glyph glyph-name="periodcentered" horiz-adv-x="592" unicode="·" d="M86 723q0 92 54.5 142t158.5 50q99 0 152 -50t53 -142q0 -90 -54.5 -141.5t-150.5 -51.5q-100 0 -156.5 51t-56.5 142z"/>
<glyph glyph-name="cedilla" horiz-adv-x="383" unicode="¸" d="M397 -252q0 -109 -75 -174.5t-199 -65.5q-136 0 -213 29v205q83 -27 147 -27q52 0 52 47q0 33 -41 58.5t-107 40.5l72 139h203l-9 -29q96 -39 133 -92.5t37 -130.5z"/>
<glyph glyph-name="onesuperior" horiz-adv-x="817" unicode="¹" d="M616 586h-282v356q0 35 3.5 118t6.5 99q-9 -19 -31.5 -43t-109.5 -98l-146 170l340 274h219v-876z"/>
<glyph glyph-name="ordmasculine" horiz-adv-x="803" unicode="º" d="M301 1104q0 -87 24 -129.5t76 -42.5q99 0 99 172q0 174 -99 174q-100 0 -100 -174zM756 1104q0 -174 -95.5 -274.5t-261.5 -100.5q-159 0 -254.5 102.5t-95.5 272.5q0 177 94.5 276t259.5 99q157 0 255 -103t98 -272z"/>
<glyph glyph-name="guillemotright" horiz-adv-x="1395" unicode="»" d="M745 561l-387 -481l-282 147l272 348l-272 347l282 149l387 -483v-27zM1321 561l-387 -481l-285 147l275 348l-275 347l285 149l387 -483v-27z"/>
<glyph glyph-name="onequarter" horiz-adv-x="1919" unicode="¼" d="M1398 341v166q0 69 7 135q-40 -100 -62 -133l-102 -168h157zM1798 140h-125v-139h-275v139h-370v188l350 555h295v-542h125v-201zM1412 1462l-754 -1462h-301l753 1462h302zM547 586h-282v356q0 35 3.5 118t6.5 99q-9 -19 -31.5 -43t-109.5 -98l-146 170l340 274h219 v-876z"/>
<glyph glyph-name="onehalf" horiz-adv-x="1921" unicode="½" d="M1829 1h-674v207l215 213q84 84 116.5 129t32.5 79q0 58 -65 58q-81 0 -172 -88l-142 166q80 73 167.5 104t203.5 31q142 0 219.5 -63t77.5 -175q0 -46 -13 -87t-40.5 -84.5t-74.5 -91t-198 -173.5h347v-225zM1436 1462l-754 -1462h-301l753 1462h302zM547 586h-282v356 q0 35 3.5 118t6.5 99q-9 -19 -31.5 -43t-109.5 -98l-146 170l340 274h219v-876z"/>
<glyph glyph-name="threequarters" horiz-adv-x="1921" unicode="¾" d="M1470 341v166q0 69 7 135q-40 -100 -62 -133l-102 -168h157zM1870 140h-125v-139h-275v139h-370v188l350 555h295v-542h125v-201zM745 1266q0 -78 -37 -132.5t-125 -86.5v-9q97 -24 144 -76t47 -139q0 -120 -98 -187t-277 -67q-185 0 -309 70v233q117 -81 297 -81 q116 0 116 67q0 41 -32.5 56.5t-102.5 15.5h-104v194h80q71 0 105 18.5t34 59.5q0 25 -21 46.5t-71 21.5t-94 -17t-97 -57l-117 170q149 115 343 115q146 0 232.5 -57.5t86.5 -157.5zM1520 1462l-754 -1462h-301l753 1462h302z"/>
<glyph glyph-name="questiondown" horiz-adv-x="1034" unicode="¿" d="M782 963q0 -93 -53 -143t-158 -50q-101 0 -153.5 50t-52.5 143q0 90 54 140t152 50q101 0 156 -49.5t55 -140.5zM739 612v-86q0 -98 -40 -165.5t-142 -131.5q-57 -36 -90 -66t-47 -55.5t-14 -64.5q0 -42 37.5 -66t99.5 -24q148 0 352 106l139 -272q-243 -141 -520 -141 q-223 0 -350 98t-127 266q0 120 55 208t182 169q100 64 129 97t29 77v51h307z"/>
<glyph glyph-name="Agrave" horiz-adv-x="1487" unicode="À" d="M901 598l-63 240q-22 80 -53.5 207t-41.5 182q-9 -51 -35.5 -168t-117.5 -461h311zM1055 0l-72 274h-475l-74 -274h-434l477 1468h527l483 -1468h-432zM704 1579q-69 44 -203.5 138.5t-228.5 168.5v21h430q52 -70 203 -233l59 -66v-29h-260z"/>
<glyph glyph-name="Aacute" horiz-adv-x="1487" unicode="Á" d="M901 598l-63 240q-22 80 -53.5 207t-41.5 182q-9 -51 -35.5 -168t-117.5 -461h311zM1055 0l-72 274h-475l-74 -274h-434l477 1468h527l483 -1468h-432zM532 1579v29q154 165 195.5 213t68.5 86h428v-21q-80 -64 -220 -163t-212 -144h-260z"/>
<glyph glyph-name="Acircumflex" horiz-adv-x="1487" unicode="Â" d="M901 598l-63 240q-22 80 -53.5 207t-41.5 182q-9 -51 -35.5 -168t-117.5 -461h311zM1055 0l-72 274h-475l-74 -274h-434l477 1468h527l483 -1468h-432zM948 1579q-84 48 -201 150q-125 -107 -194 -150h-258v29q69 65 144.5 153t113.5 146h393q94 -137 256 -299v-29h-254z "/>
<glyph glyph-name="Atilde" horiz-adv-x="1487" unicode="Ã" d="M901 598l-63 240q-22 80 -53.5 207t-41.5 182q-9 -51 -35.5 -168t-117.5 -461h311zM1055 0l-72 274h-475l-74 -274h-434l477 1468h527l483 -1468h-432zM926 1577q-45 0 -90.5 15t-89.5 33t-85.5 33t-78.5 15q-54 0 -72 -98h-180q11 175 72 258.5t180 83.5q38 0 81 -15 t87 -33t87 -33t81 -15q29 0 46 25t26 73h182q-11 -167 -74 -254.5t-172 -87.5z"/>
<glyph glyph-name="Adieresis" horiz-adv-x="1487" unicode="Ä" d="M901 598l-63 240q-22 80 -53.5 207t-41.5 182q-9 -51 -35.5 -168t-117.5 -461h311zM1055 0l-72 274h-475l-74 -274h-434l477 1468h527l483 -1468h-432zM831 1751q0 75 46 116.5t126 41.5t126.5 -43t46.5 -115q0 -71 -46.5 -113.5t-126.5 -42.5q-81 0 -126.5 41.5 t-45.5 114.5zM352 1751q0 75 46 116.5t124 41.5q79 0 125.5 -42.5t46.5 -115.5q0 -71 -46.5 -113.5t-125.5 -42.5q-78 0 -124 41t-46 115z"/>
<glyph glyph-name="Aring" horiz-adv-x="1487" unicode="Å" d="M901 598l-63 240q-22 80 -53.5 207t-41.5 182q-9 -51 -35.5 -168t-117.5 -461h311zM1055 0l-72 274h-475l-74 -274h-434l477 1468h527l483 -1468h-432zM823 1614q0 38 -24.5 61t-59.5 23t-59.5 -23t-24.5 -61q0 -37 21 -60.5t63 -23.5q35 0 59.5 23.5t24.5 60.5z M1011 1616q0 -113 -76 -183.5t-196 -70.5q-121 0 -192.5 68.5t-71.5 183.5q0 116 71.5 185t192.5 69q118 0 195 -70t77 -182z"/>
<glyph glyph-name="AE" horiz-adv-x="1937" unicode="Æ" d="M653 602h316v526h-111zM1839 0h-870v274h-437l-100 -274h-442l628 1462h1221v-317h-473v-230h438v-317h-438v-276h473v-322z"/>
<glyph glyph-name="Ccedilla" horiz-adv-x="1329" unicode="Ç" d="M809 1159q-141 0 -220 -115.5t-79 -318.5q0 -422 321 -422q97 0 188 27t183 65v-334q-183 -81 -414 -81q-331 0 -507.5 192t-176.5 555q0 227 85.5 399t246 264.5t377.5 92.5q237 0 453 -103l-121 -311q-81 38 -162 64t-174 26zM964 -252q0 -109 -75 -174.5t-199 -65.5 q-136 0 -213 29v205q83 -27 147 -27q52 0 52 47q0 33 -41 58.5t-107 40.5l72 139h203l-9 -29q96 -39 133 -92.5t37 -130.5z"/>
<glyph glyph-name="Egrave" horiz-adv-x="1124" unicode="È" d="M1026 0h-868v1462h868v-317h-473v-230h438v-317h-438v-276h473v-322zM586 1579q-69 44 -203.5 138.5t-228.5 168.5v21h430q52 -70 203 -233l59 -66v-29h-260z"/>
<glyph glyph-name="Eacute" horiz-adv-x="1124" unicode="É" d="M1026 0h-868v1462h868v-317h-473v-230h438v-317h-438v-276h473v-322zM362 1579v29q154 165 195.5 213t68.5 86h428v-21q-80 -64 -220 -163t-212 -144h-260z"/>
<glyph glyph-name="Ecircumflex" horiz-adv-x="1124" unicode="Ê" d="M1026 0h-868v1462h868v-317h-473v-230h438v-317h-438v-276h473v-322zM804 1579q-84 48 -201 150q-125 -107 -194 -150h-258v29q69 65 144.5 153t113.5 146h393q94 -137 256 -299v-29h-254z"/>
<glyph glyph-name="Edieresis" horiz-adv-x="1124" unicode="Ë" d="M1026 0h-868v1462h868v-317h-473v-230h438v-317h-438v-276h473v-322zM666 1751q0 75 46 116.5t126 41.5t126.5 -43t46.5 -115q0 -71 -46.5 -113.5t-126.5 -42.5q-81 0 -126.5 41.5t-45.5 114.5zM187 1751q0 75 46 116.5t124 41.5q79 0 125.5 -42.5t46.5 -115.5 q0 -71 -46.5 -113.5t-125.5 -42.5q-78 0 -124 41t-46 115z"/>
<glyph glyph-name="Igrave" horiz-adv-x="713" unicode="Ì" d="M158 0v1462h397v-1462h-397zM316 1579q-69 44 -203.5 138.5t-228.5 168.5v21h430q52 -70 203 -233l59 -66v-29h-260z"/>
<glyph glyph-name="Iacute" horiz-adv-x="713" unicode="Í" d="M158 0v1462h397v-1462h-397zM156 1579v29q154 165 195.5 213t68.5 86h428v-21q-80 -64 -220 -163t-212 -144h-260z"/>
<glyph glyph-name="Icircumflex" horiz-adv-x="713" unicode="Î" d="M158 0v1462h397v-1462h-397zM558 1579q-84 48 -201 150q-125 -107 -194 -150h-258v29q69 65 144.5 153t113.5 146h393q94 -137 256 -299v-29h-254z"/>
<glyph glyph-name="Idieresis" horiz-adv-x="713" unicode="Ï" d="M158 0v1462h397v-1462h-397zM424 1751q0 75 46 116.5t126 41.5t126.5 -43t46.5 -115q0 -71 -46.5 -113.5t-126.5 -42.5q-81 0 -126.5 41.5t-45.5 114.5zM-55 1751q0 75 46 116.5t124 41.5q79 0 125.5 -42.5t46.5 -115.5q0 -71 -46.5 -113.5t-125.5 -42.5q-78 0 -124 41 t-46 115z"/>
<glyph glyph-name="Eth" horiz-adv-x="1503" unicode="Ð" d="M989 748q0 201 -79.5 298t-241.5 97h-115v-260h211v-320h-211v-239h88q180 0 264 104.5t84 319.5zM1399 762q0 -366 -201.5 -564t-566.5 -198h-473v563h-127v320h127v579h506q352 0 543.5 -180t191.5 -520z"/>
<glyph glyph-name="Ntilde" horiz-adv-x="1708" unicode="Ñ" d="M1550 0h-518l-534 1030h-9q19 -243 19 -371v-659h-350v1462h516l532 -1016h6q-14 221 -14 355v661h352v-1462zM1030 1577q-45 0 -90.5 15t-89.5 33t-85.5 33t-78.5 15q-54 0 -72 -98h-180q11 175 72 258.5t180 83.5q38 0 81 -15t87 -33t87 -33t81 -15q29 0 46 25t26 73 h182q-11 -167 -74 -254.5t-172 -87.5z"/>
<glyph glyph-name="Ograve" horiz-adv-x="1632" unicode="Ò" d="M520 733q0 -424 295 -424q150 0 222.5 103t72.5 321q0 219 -73.5 323.5t-219.5 104.5q-297 0 -297 -428zM1526 733q0 -369 -181 -561t-530 -192q-344 0 -527.5 193t-183.5 562q0 365 182.5 557.5t530.5 192.5q349 0 529 -191t180 -561zM829 1579q-69 44 -203.5 138.5 t-228.5 168.5v21h430q52 -70 203 -233l59 -66v-29h-260z"/>
<glyph glyph-name="Oacute" horiz-adv-x="1632" unicode="Ó" d="M520 733q0 -424 295 -424q150 0 222.5 103t72.5 321q0 219 -73.5 323.5t-219.5 104.5q-297 0 -297 -428zM1526 733q0 -369 -181 -561t-530 -192q-344 0 -527.5 193t-183.5 562q0 365 182.5 557.5t530.5 192.5q349 0 529 -191t180 -561zM583 1579v29q154 165 195.5 213 t68.5 86h428v-21q-80 -64 -220 -163t-212 -144h-260z"/>
<glyph glyph-name="Ocircumflex" horiz-adv-x="1632" unicode="Ô" d="M520 733q0 -424 295 -424q150 0 222.5 103t72.5 321q0 219 -73.5 323.5t-219.5 104.5q-297 0 -297 -428zM1526 733q0 -369 -181 -561t-530 -192q-344 0 -527.5 193t-183.5 562q0 365 182.5 557.5t530.5 192.5q349 0 529 -191t180 -561zM1016 1579q-84 48 -201 150 q-125 -107 -194 -150h-258v29q69 65 144.5 153t113.5 146h393q94 -137 256 -299v-29h-254z"/>
<glyph glyph-name="Otilde" horiz-adv-x="1632" unicode="Õ" d="M520 733q0 -424 295 -424q150 0 222.5 103t72.5 321q0 219 -73.5 323.5t-219.5 104.5q-297 0 -297 -428zM1526 733q0 -369 -181 -561t-530 -192q-344 0 -527.5 193t-183.5 562q0 365 182.5 557.5t530.5 192.5q349 0 529 -191t180 -561zM997 1577q-45 0 -90.5 15t-89.5 33 t-85.5 33t-78.5 15q-54 0 -72 -98h-180q11 175 72 258.5t180 83.5q38 0 81 -15t87 -33t87 -33t81 -15q29 0 46 25t26 73h182q-11 -167 -74 -254.5t-172 -87.5z"/>
<glyph glyph-name="Odieresis" horiz-adv-x="1632" unicode="Ö" d="M520 733q0 -424 295 -424q150 0 222.5 103t72.5 321q0 219 -73.5 323.5t-219.5 104.5q-297 0 -297 -428zM1526 733q0 -369 -181 -561t-530 -192q-344 0 -527.5 193t-183.5 562q0 365 182.5 557.5t530.5 192.5q349 0 529 -191t180 -561zM882 1751q0 75 46 116.5t126 41.5 t126.5 -43t46.5 -115q0 -71 -46.5 -113.5t-126.5 -42.5q-81 0 -126.5 41.5t-45.5 114.5zM403 1751q0 75 46 116.5t124 41.5q79 0 125.5 -42.5t46.5 -115.5q0 -71 -46.5 -113.5t-125.5 -42.5q-78 0 -124 41t-46 115z"/>
<glyph glyph-name="multiply" horiz-adv-x="1159" unicode="×" d="M387 723l-266 268l182 189l270 -267l275 267l188 -183l-274 -274l270 -272l-184 -185l-275 271l-270 -269l-180 187z"/>
<glyph glyph-name="Oslash" horiz-adv-x="1632" unicode="Ø" d="M520 733q0 -155 29 -239l403 639q-68 28 -135 28q-297 0 -297 -428zM1110 733q0 125 -18 211l-394 -620q54 -15 117 -15q150 0 222.5 103t72.5 321zM1526 733q0 -369 -181 -561t-530 -192q-177 0 -307 43l-84 -132l-193 125l84 125q-211 194 -211 594q0 365 182.5 557.5 t530.5 192.5q191 0 330 -55l76 118l190 -114l-82 -125q195 -189 195 -576z"/>
<glyph glyph-name="Ugrave" horiz-adv-x="1550" unicode="Ù" d="M1401 1462v-880q0 -287 -162.5 -444.5t-468.5 -157.5q-299 0 -459.5 153t-160.5 440v889h397v-858q0 -155 58 -225t171 -70q121 0 175.5 69.5t54.5 227.5v856h395zM712 1579q-69 44 -203.5 138.5t-228.5 168.5v21h430q52 -70 203 -233l59 -66v-29h-260z"/>
<glyph glyph-name="Uacute" horiz-adv-x="1550" unicode="Ú" d="M1401 1462v-880q0 -287 -162.5 -444.5t-468.5 -157.5q-299 0 -459.5 153t-160.5 440v889h397v-858q0 -155 58 -225t171 -70q121 0 175.5 69.5t54.5 227.5v856h395zM561 1579v29q154 165 195.5 213t68.5 86h428v-21q-80 -64 -220 -163t-212 -144h-260z"/>
<glyph glyph-name="Ucircumflex" horiz-adv-x="1550" unicode="Û" d="M1401 1462v-880q0 -287 -162.5 -444.5t-468.5 -157.5q-299 0 -459.5 153t-160.5 440v889h397v-858q0 -155 58 -225t171 -70q121 0 175.5 69.5t54.5 227.5v856h395zM975 1579q-84 48 -201 150q-125 -107 -194 -150h-258v29q69 65 144.5 153t113.5 146h393 q94 -137 256 -299v-29h-254z"/>
<glyph glyph-name="Udieresis" horiz-adv-x="1550" unicode="Ü" d="M1401 1462v-880q0 -287 -162.5 -444.5t-468.5 -157.5q-299 0 -459.5 153t-160.5 440v889h397v-858q0 -155 58 -225t171 -70q121 0 175.5 69.5t54.5 227.5v856h395zM841 1751q0 75 46 116.5t126 41.5t126.5 -43t46.5 -115q0 -71 -46.5 -113.5t-126.5 -42.5 q-81 0 -126.5 41.5t-45.5 114.5zM362 1751q0 75 46 116.5t124 41.5q79 0 125.5 -42.5t46.5 -115.5q0 -71 -46.5 -113.5t-125.5 -42.5q-78 0 -124 41t-46 115z"/>
<glyph glyph-name="Yacute" horiz-adv-x="1360" unicode="Ý" d="M680 920l252 542h428l-481 -891v-571h-398v559l-481 903h430zM471 1579v29q154 165 195.5 213t68.5 86h428v-21q-80 -64 -220 -163t-212 -144h-260z"/>
<glyph glyph-name="Thorn" horiz-adv-x="1284" unicode="Þ" d="M553 594h72q89 0 141.5 50t52.5 138q0 148 -164 148h-102v-336zM1219 784q0 -245 -144.5 -378.5t-410.5 -133.5h-111v-272h-395v1462h395v-213h111q277 0 416 -121t139 -344z"/>
<glyph glyph-name="germandbls" horiz-adv-x="1536" unicode="ß" d="M1339 1190q0 -57 -20 -103.5t-49.5 -84t-64.5 -66.5t-64.5 -52t-49.5 -41t-20 -32q0 -23 24.5 -44t93.5 -58q169 -95 228.5 -173t59.5 -202q0 -174 -115 -264t-338 -90q-136 0 -221.5 12.5t-149.5 46.5v291q49 -30 131.5 -55t147.5 -25q61 0 99 23.5t38 62.5 q0 28 -14.5 47t-50.5 42.5t-121 68.5q-126 67 -175 124.5t-49 137.5q0 122 140 218q75 52 107 91.5t32 83.5q0 51 -49.5 85t-140.5 34q-222 0 -222 -209v-1059h-391v1100q0 215 167 341t446 126q276 0 433.5 -99.5t157.5 -277.5z"/>
<glyph glyph-name="agrave" horiz-adv-x="1276" unicode="à" d="M584 256q71 0 121.5 45t50.5 117v88l-90 -4q-193 -7 -193 -142q0 -104 111 -104zM874 0l-75 150h-8q-79 -98 -161 -134t-212 -36q-160 0 -252 96t-92 270q0 181 126 269.5t365 99.5l189 6v16q0 140 -138 140q-124 0 -315 -84l-113 258q198 102 500 102q218 0 337.5 -108 t119.5 -302v-743h-271zM636 1241q-69 44 -203.5 138.5t-228.5 168.5v21h430q52 -70 203 -233l59 -66v-29h-260z"/>
<glyph glyph-name="aacute" horiz-adv-x="1276" unicode="á" d="M584 256q71 0 121.5 45t50.5 117v88l-90 -4q-193 -7 -193 -142q0 -104 111 -104zM874 0l-75 150h-8q-79 -98 -161 -134t-212 -36q-160 0 -252 96t-92 270q0 181 126 269.5t365 99.5l189 6v16q0 140 -138 140q-124 0 -315 -84l-113 258q198 102 500 102q218 0 337.5 -108 t119.5 -302v-743h-271zM434 1241v29q154 165 195.5 213t68.5 86h428v-21q-80 -64 -220 -163t-212 -144h-260z"/>
<glyph glyph-name="acircumflex" horiz-adv-x="1276" unicode="â" d="M584 256q71 0 121.5 45t50.5 117v88l-90 -4q-193 -7 -193 -142q0 -104 111 -104zM874 0l-75 150h-8q-79 -98 -161 -134t-212 -36q-160 0 -252 96t-92 270q0 181 126 269.5t365 99.5l189 6v16q0 140 -138 140q-124 0 -315 -84l-113 258q198 102 500 102q218 0 337.5 -108 t119.5 -302v-743h-271zM850 1238q-84 48 -201 150q-125 -107 -194 -150h-258v29q69 65 144.5 153t113.5 146h393q94 -137 256 -299v-29h-254z"/>
<glyph glyph-name="atilde" horiz-adv-x="1276" unicode="ã" d="M584 256q71 0 121.5 45t50.5 117v88l-90 -4q-193 -7 -193 -142q0 -104 111 -104zM874 0l-75 150h-8q-79 -98 -161 -134t-212 -36q-160 0 -252 96t-92 270q0 181 126 269.5t365 99.5l189 6v16q0 140 -138 140q-124 0 -315 -84l-113 258q198 102 500 102q218 0 337.5 -108 t119.5 -302v-743h-271zM840 1239q-45 0 -90.5 15t-89.5 33t-85.5 33t-78.5 15q-54 0 -72 -98h-180q11 175 72 258.5t180 83.5q38 0 81 -15t87 -33t87 -33t81 -15q29 0 46 25t26 73h182q-11 -167 -74 -254.5t-172 -87.5z"/>
<glyph glyph-name="adieresis" horiz-adv-x="1276" unicode="ä" d="M584 256q71 0 121.5 45t50.5 117v88l-90 -4q-193 -7 -193 -142q0 -104 111 -104zM874 0l-75 150h-8q-79 -98 -161 -134t-212 -36q-160 0 -252 96t-92 270q0 181 126 269.5t365 99.5l189 6v16q0 140 -138 140q-124 0 -315 -84l-113 258q198 102 500 102q218 0 337.5 -108 t119.5 -302v-743h-271zM747 1413q0 75 46 116.5t126 41.5t126.5 -43t46.5 -115q0 -71 -46.5 -113.5t-126.5 -42.5q-81 0 -126.5 41.5t-45.5 114.5zM268 1413q0 75 46 116.5t124 41.5q79 0 125.5 -42.5t46.5 -115.5q0 -71 -46.5 -113.5t-125.5 -42.5q-78 0 -124 41t-46 115z "/>
<glyph glyph-name="aring" horiz-adv-x="1276" unicode="å" d="M584 256q71 0 121.5 45t50.5 117v88l-90 -4q-193 -7 -193 -142q0 -104 111 -104zM874 0l-75 150h-8q-79 -98 -161 -134t-212 -36q-160 0 -252 96t-92 270q0 181 126 269.5t365 99.5l189 6v16q0 140 -138 140q-124 0 -315 -84l-113 258q198 102 500 102q218 0 337.5 -108 t119.5 -302v-743h-271zM737 1489q0 38 -24.5 61t-59.5 23t-59.5 -23t-24.5 -61q0 -37 21 -60.5t63 -23.5q35 0 59.5 23.5t24.5 60.5zM925 1491q0 -113 -76 -183.5t-196 -70.5q-121 0 -192.5 68.5t-71.5 183.5q0 116 71.5 185t192.5 69q118 0 195 -70t77 -182z"/>
<glyph glyph-name="ae" horiz-adv-x="1915" unicode="æ" d="M1315 887q-162 0 -176 -180h340q-2 82 -48 131t-116 49zM756 506l-84 -4q-106 -4 -152.5 -38.5t-46.5 -107.5q0 -100 113 -100q69 0 119.5 45t50.5 117v88zM1341 -20q-280 0 -430 190q-80 -83 -141.5 -120.5t-138.5 -53.5t-197 -16q-162 0 -261 101.5t-99 270.5 q0 345 497 363l183 6v18q0 138 -136 138q-138 0 -313 -80l-110 256q190 100 454 100q201 0 336 -94q70 49 153 71.5t199 22.5q229 0 360.5 -136.5t131.5 -383.5v-172h-696q4 -90 74 -146.5t186 -56.5q194 0 364 86v-281q-94 -48 -191 -65.5t-225 -17.5z"/>
<glyph glyph-name="ccedilla" horiz-adv-x="1104" unicode="ç" d="M651 -20q-278 0 -421.5 150t-143.5 431q0 282 155 437t441 155q197 0 371 -86l-115 -289q-71 31 -131 49.5t-125 18.5q-95 0 -147 -74t-52 -209q0 -272 201 -272q172 0 330 100v-311q-151 -100 -363 -100zM848 -252q0 -109 -75 -174.5t-199 -65.5q-136 0 -213 29v205 q83 -27 147 -27q52 0 52 47q0 33 -41 58.5t-107 40.5l72 139h203l-9 -29q96 -39 133 -92.5t37 -130.5z"/>
<glyph glyph-name="egrave" horiz-adv-x="1266" unicode="è" d="M659 887q-69 0 -115.5 -43.5t-54.5 -136.5h336q-2 82 -46.5 131t-119.5 49zM682 -20q-283 0 -439.5 150.5t-156.5 428.5q0 287 145 440.5t414 153.5q256 0 395.5 -133.5t139.5 -384.5v-174h-699q4 -95 69.5 -149t178.5 -54q103 0 189.5 19.5t187.5 66.5v-281 q-92 -47 -190 -65t-234 -18zM621 1241q-69 44 -203.5 138.5t-228.5 168.5v21h430q52 -70 203 -233l59 -66v-29h-260z"/>
<glyph glyph-name="eacute" horiz-adv-x="1266" unicode="é" d="M659 887q-69 0 -115.5 -43.5t-54.5 -136.5h336q-2 82 -46.5 131t-119.5 49zM682 -20q-283 0 -439.5 150.5t-156.5 428.5q0 287 145 440.5t414 153.5q256 0 395.5 -133.5t139.5 -384.5v-174h-699q4 -95 69.5 -149t178.5 -54q103 0 189.5 19.5t187.5 66.5v-281 q-92 -47 -190 -65t-234 -18zM471 1241v29q154 165 195.5 213t68.5 86h428v-21q-80 -64 -220 -163t-212 -144h-260z"/>
<glyph glyph-name="ecircumflex" horiz-adv-x="1266" unicode="ê" d="M659 887q-69 0 -115.5 -43.5t-54.5 -136.5h336q-2 82 -46.5 131t-119.5 49zM682 -20q-283 0 -439.5 150.5t-156.5 428.5q0 287 145 440.5t414 153.5q256 0 395.5 -133.5t139.5 -384.5v-174h-699q4 -95 69.5 -149t178.5 -54q103 0 189.5 19.5t187.5 66.5v-281 q-92 -47 -190 -65t-234 -18zM858 1241q-84 48 -201 150q-125 -107 -194 -150h-258v29q69 65 144.5 153t113.5 146h393q94 -137 256 -299v-29h-254z"/>
<glyph glyph-name="edieresis" horiz-adv-x="1266" unicode="ë" d="M659 887q-69 0 -115.5 -43.5t-54.5 -136.5h336q-2 82 -46.5 131t-119.5 49zM682 -20q-283 0 -439.5 150.5t-156.5 428.5q0 287 145 440.5t414 153.5q256 0 395.5 -133.5t139.5 -384.5v-174h-699q4 -95 69.5 -149t178.5 -54q103 0 189.5 19.5t187.5 66.5v-281 q-92 -47 -190 -65t-234 -18zM731 1413q0 75 46 116.5t126 41.5t126.5 -43t46.5 -115q0 -71 -46.5 -113.5t-126.5 -42.5q-81 0 -126.5 41.5t-45.5 114.5zM252 1413q0 75 46 116.5t124 41.5q79 0 125.5 -42.5t46.5 -115.5q0 -71 -46.5 -113.5t-125.5 -42.5q-78 0 -124 41 t-46 115z"/>
<glyph glyph-name="igrave" horiz-adv-x="666" unicode="ì" d="M528 0h-391v1133h391v-1133zM302 1241q-69 44 -203.5 138.5t-228.5 168.5v21h430q52 -70 203 -233l59 -66v-29h-260z"/>
<glyph glyph-name="iacute" horiz-adv-x="666" unicode="í" d="M528 0h-391v1133h391v-1133zM107 1241v29q154 165 195.5 213t68.5 86h428v-21q-80 -64 -220 -163t-212 -144h-260z"/>
<glyph glyph-name="icircumflex" horiz-adv-x="666" unicode="î" d="M528 0h-391v1133h391v-1133zM533 1241q-84 48 -201 150q-125 -107 -194 -150h-258v29q69 65 144.5 153t113.5 146h393q94 -137 256 -299v-29h-254z"/>
<glyph glyph-name="idieresis" horiz-adv-x="666" unicode="ï" d="M528 0h-391v1133h391v-1133zM418 1413q0 75 46 116.5t126 41.5t126.5 -43t46.5 -115q0 -71 -46.5 -113.5t-126.5 -42.5q-81 0 -126.5 41.5t-45.5 114.5zM-61 1413q0 75 46 116.5t124 41.5q79 0 125.5 -42.5t46.5 -115.5q0 -71 -46.5 -113.5t-125.5 -42.5q-78 0 -124 41 t-46 115z"/>
<glyph glyph-name="eth" horiz-adv-x="1313" unicode="ð" d="M817 545q0 84 -45 136t-119 52q-92 0 -128 -56t-36 -177q0 -242 164 -242q91 0 127.5 71t36.5 216zM1217 580q0 -275 -152.5 -437.5t-415.5 -162.5q-259 0 -410 139t-151 379q0 239 130.5 377.5t348.5 138.5q192 0 244 -84l8 4q-67 130 -143 207l-182 -119l-117 184 l143 92l-149 93l108 182q174 -73 266 -135l209 137l115 -182l-145 -97q159 -157 226 -327.5t67 -388.5z"/>
<glyph glyph-name="ntilde" horiz-adv-x="1372" unicode="ñ" d="M850 0v618q0 113 -32.5 170.5t-104.5 57.5q-99 0 -143 -79t-44 -271v-496h-391v1133h295l49 -140h23q50 80 138.5 120t203.5 40q188 0 292.5 -109t104.5 -307v-737h-391zM870 1239q-45 0 -90.5 15t-89.5 33t-85.5 33t-78.5 15q-54 0 -72 -98h-180q11 175 72 258.5 t180 83.5q38 0 81 -15t87 -33t87 -33t81 -15q29 0 46 25t26 73h182q-11 -167 -74 -254.5t-172 -87.5z"/>
<glyph glyph-name="ograve" horiz-adv-x="1305" unicode="ò" d="M483 569q0 -146 39 -222.5t131 -76.5q91 0 128.5 76.5t37.5 222.5q0 145 -38 219t-130 74q-90 0 -129 -73.5t-39 -219.5zM1217 569q0 -278 -149.5 -433.5t-418.5 -155.5q-258 0 -410.5 159t-152.5 430q0 277 149.5 430.5t419.5 153.5q167 0 295 -71t197.5 -203.5 t69.5 -309.5zM607 1241q-69 44 -203.5 138.5t-228.5 168.5v21h430q52 -70 203 -233l59 -66v-29h-260z"/>
<glyph glyph-name="oacute" horiz-adv-x="1305" unicode="ó" d="M483 569q0 -146 39 -222.5t131 -76.5q91 0 128.5 76.5t37.5 222.5q0 145 -38 219t-130 74q-90 0 -129 -73.5t-39 -219.5zM1217 569q0 -278 -149.5 -433.5t-418.5 -155.5q-258 0 -410.5 159t-152.5 430q0 277 149.5 430.5t419.5 153.5q167 0 295 -71t197.5 -203.5 t69.5 -309.5zM416 1241v29q154 165 195.5 213t68.5 86h428v-21q-80 -64 -220 -163t-212 -144h-260z"/>
<glyph glyph-name="ocircumflex" horiz-adv-x="1305" unicode="ô" d="M483 569q0 -146 39 -222.5t131 -76.5q91 0 128.5 76.5t37.5 222.5q0 145 -38 219t-130 74q-90 0 -129 -73.5t-39 -219.5zM1217 569q0 -278 -149.5 -433.5t-418.5 -155.5q-258 0 -410.5 159t-152.5 430q0 277 149.5 430.5t419.5 153.5q167 0 295 -71t197.5 -203.5 t69.5 -309.5zM852 1241q-84 48 -201 150q-125 -107 -194 -150h-258v29q69 65 144.5 153t113.5 146h393q94 -137 256 -299v-29h-254z"/>
<glyph glyph-name="otilde" horiz-adv-x="1305" unicode="õ" d="M483 569q0 -146 39 -222.5t131 -76.5q91 0 128.5 76.5t37.5 222.5q0 145 -38 219t-130 74q-90 0 -129 -73.5t-39 -219.5zM1217 569q0 -278 -149.5 -433.5t-418.5 -155.5q-258 0 -410.5 159t-152.5 430q0 277 149.5 430.5t419.5 153.5q167 0 295 -71t197.5 -203.5 t69.5 -309.5zM827 1239q-45 0 -90.5 15t-89.5 33t-85.5 33t-78.5 15q-54 0 -72 -98h-180q11 175 72 258.5t180 83.5q38 0 81 -15t87 -33t87 -33t81 -15q29 0 46 25t26 73h182q-11 -167 -74 -254.5t-172 -87.5z"/>
<glyph glyph-name="odieresis" horiz-adv-x="1305" unicode="ö" d="M483 569q0 -146 39 -222.5t131 -76.5q91 0 128.5 76.5t37.5 222.5q0 145 -38 219t-130 74q-90 0 -129 -73.5t-39 -219.5zM1217 569q0 -278 -149.5 -433.5t-418.5 -155.5q-258 0 -410.5 159t-152.5 430q0 277 149.5 430.5t419.5 153.5q167 0 295 -71t197.5 -203.5 t69.5 -309.5zM718 1413q0 75 46 116.5t126 41.5t126.5 -43t46.5 -115q0 -71 -46.5 -113.5t-126.5 -42.5q-81 0 -126.5 41.5t-45.5 114.5zM239 1413q0 75 46 116.5t124 41.5q79 0 125.5 -42.5t46.5 -115.5q0 -71 -46.5 -113.5t-125.5 -42.5q-78 0 -124 41t-46 115z"/>
<glyph glyph-name="divide" horiz-adv-x="1159" unicode="÷" d="M422 1112q0 82 39.5 126t116.5 44q75 0 116 -43.5t41 -126.5q0 -80 -43.5 -125t-113.5 -45q-71 0 -113.5 44t-42.5 126zM422 332q0 82 39.5 126t116.5 44q75 0 116 -43.5t41 -126.5q0 -80 -43.5 -125t-113.5 -45q-71 0 -113.5 44t-42.5 126zM72 588v268h1013v-268h-1013z "/>
<glyph glyph-name="oslash" horiz-adv-x="1362" unicode="ø" d="M899 569q0 86 -10 131l-283 -442q27 -8 76 -8q114 0 165.5 73t51.5 246zM461 569q0 -99 12 -147l289 448q-36 13 -82 13q-114 0 -166.5 -74t-52.5 -240zM274 113q-188 158 -188 456q0 277 157 430.5t441 153.5q125 0 234 -39l71 111l168 -105l-67 -104q184 -158 184 -447 q0 -280 -156.5 -434.5t-439.5 -154.5q-125 0 -229 34l-84 -131l-170 107z"/>
<glyph glyph-name="ugrave" horiz-adv-x="1372" unicode="ù" d="M942 0l-49 141h-23q-49 -78 -136.5 -119.5t-205.5 -41.5q-187 0 -291 108.5t-104 306.5v738h391v-619q0 -111 31.5 -168t103.5 -57q101 0 144 79.5t43 268.5v496h391v-1133h-295zM607 1241q-69 44 -203.5 138.5t-228.5 168.5v21h430q52 -70 203 -233l59 -66v-29h-260z "/>
<glyph glyph-name="uacute" horiz-adv-x="1372" unicode="ú" d="M942 0l-49 141h-23q-49 -78 -136.5 -119.5t-205.5 -41.5q-187 0 -291 108.5t-104 306.5v738h391v-619q0 -111 31.5 -168t103.5 -57q101 0 144 79.5t43 268.5v496h391v-1133h-295zM471 1241v29q154 165 195.5 213t68.5 86h428v-21q-80 -64 -220 -163t-212 -144h-260z"/>
<glyph glyph-name="ucircumflex" horiz-adv-x="1372" unicode="û" d="M942 0l-49 141h-23q-49 -78 -136.5 -119.5t-205.5 -41.5q-187 0 -291 108.5t-104 306.5v738h391v-619q0 -111 31.5 -168t103.5 -57q101 0 144 79.5t43 268.5v496h391v-1133h-295zM883 1241q-84 48 -201 150q-125 -107 -194 -150h-258v29q69 65 144.5 153t113.5 146h393 q94 -137 256 -299v-29h-254z"/>
<glyph glyph-name="udieresis" horiz-adv-x="1372" unicode="ü" d="M942 0l-49 141h-23q-49 -78 -136.5 -119.5t-205.5 -41.5q-187 0 -291 108.5t-104 306.5v738h391v-619q0 -111 31.5 -168t103.5 -57q101 0 144 79.5t43 268.5v496h391v-1133h-295zM751 1413q0 75 46 116.5t126 41.5t126.5 -43t46.5 -115q0 -71 -46.5 -113.5t-126.5 -42.5 q-81 0 -126.5 41.5t-45.5 114.5zM272 1413q0 75 46 116.5t124 41.5q79 0 125.5 -42.5t46.5 -115.5q0 -71 -46.5 -113.5t-125.5 -42.5q-78 0 -124 41t-46 115z"/>
<glyph glyph-name="yacute" horiz-adv-x="1249" unicode="ý" d="M-2 1133h412l192 -650q14 -51 19 -123h8q8 69 24 121l197 652h399l-448 -1205q-86 -230 -211.5 -325t-327.5 -95q-78 0 -160 17v307q53 -12 121 -12q52 0 91 20t68 56.5t62 119.5zM401 1241v29q154 165 195.5 213t68.5 86h428v-21q-80 -64 -220 -163t-212 -144h-260z"/>
<glyph glyph-name="thorn" horiz-adv-x="1317" unicode="þ" d="M682 846q-85 0 -119 -61.5t-37 -184.5v-29q0 -146 39 -211t123 -65q80 0 111.5 70.5t31.5 207.5q0 134 -33 203.5t-116 69.5zM526 987q43 78 122 122t179 44q185 0 293.5 -154t108.5 -430q0 -271 -111.5 -430t-304.5 -159q-173 0 -287 129h-14l7 -60l7 -92v-449h-391 v2048h391v-344q0 -106 -18 -225h18z"/>
<glyph glyph-name="dotlessi" horiz-adv-x="666" unicode="ı" d="M528 0h-391v1133h391v-1133z"/>
<glyph glyph-name="circumflex" horiz-adv-x="1237" unicode="ˆ" d="M817 1241q-84 48 -201 150q-125 -107 -194 -150h-258v29q69 65 144.5 153t113.5 146h393q94 -137 256 -299v-29h-254z"/>
<glyph glyph-name="ring" horiz-adv-x="1120" unicode="˚" d="M641 1489q0 38 -24.5 61t-59.5 23t-59.5 -23t-24.5 -61q0 -37 21 -60.5t63 -23.5q35 0 59.5 23.5t24.5 60.5zM829 1491q0 -113 -76 -183.5t-196 -70.5q-121 0 -192.5 68.5t-71.5 183.5q0 116 71.5 185t192.5 69q118 0 195 -70t77 -182z"/>
<glyph glyph-name="tilde" horiz-adv-x="1225" unicode="˜" d="M772 1239q-45 0 -90.5 15t-89.5 33t-85.5 33t-78.5 15q-54 0 -72 -98h-180q11 175 72 258.5t180 83.5q38 0 81 -15t87 -33t87 -33t81 -15q29 0 46 25t26 73h182q-11 -167 -74 -254.5t-172 -87.5z"/>
<glyph glyph-name="fraction" horiz-adv-x="188" unicode="⁄" d="M621 1462l-754 -1462h-301l753 1462h302z"/>
<glyph glyph-name="foursuperior" horiz-adv-x="817" unicode="⁴" d="M399 926v166q0 69 7 135q-40 -100 -62 -133l-102 -168h157zM799 725h-125v-139h-275v139h-370v188l350 555h295v-542h125v-201z"/>
<hkern k="61" u1='&quot;' u2="ü"/>
<hkern k="61" u1='&quot;' u2="û"/>
<hkern k="61" u1='&quot;' u2="ú"/>
<hkern k="61" u1='&quot;' u2="ù"/>
<hkern k="123" u1='&quot;' u2="ø"/>
<hkern k="123" u1='&quot;' u2="ö"/>
<hkern k="123" u1='&quot;' u2="õ"/>
<hkern k="123" u1='&quot;' u2="ô"/>
<hkern k="123" u1='&quot;' u2="ó"/>
<hkern k="123" u1='&quot;' u2="ò"/>
<hkern k="123" u1='&quot;' u2="ë"/>
<hkern k="123" u1='&quot;' u2="ê"/>
<hkern k="123" u1='&quot;' u2="é"/>
<hkern k="123" u1='&quot;' u2="è"/>
<hkern k="123" u1='&quot;' u2="ç"/>
<hkern k="82" u1='&quot;' u2="æ"/>
<hkern k="82" u1='&quot;' u2="å"/>
<hkern k="82" u1='&quot;' u2="ä"/>
<hkern k="82" u1='&quot;' u2="ã"/>
<hkern k="82" u1='&quot;' u2="â"/>
<hkern k="82" u1='&quot;' u2="á"/>
<hkern k="123" u1='&quot;' u2="à"/>
<hkern k="-20" u1='&quot;' u2="Ý"/>
<hkern k="143" u1='&quot;' u2="Å"/>
<hkern k="143" u1='&quot;' u2="Ä"/>
<hkern k="143" u1='&quot;' u2="Ã"/>
<hkern k="143" u1='&quot;' u2="Â"/>
<hkern k="143" u1='&quot;' u2="Á"/>
<hkern k="143" u1='&quot;' u2="À"/>
<hkern k="61" u1='&quot;' u2="u"/>
<hkern k="61" u1='&quot;' u2="s"/>
<hkern k="61" u1='&quot;' u2="r"/>
<hkern k="123" u1='&quot;' u2="q"/>
<hkern k="61" u1='&quot;' u2="p"/>
<hkern k="123" u1='&quot;' u2="o"/>
<hkern k="61" u1='&quot;' u2="n"/>
<hkern k="61" u1='&quot;' u2="m"/>
<hkern k="61" u1='&quot;' u2="g"/>
<hkern k="123" u1='&quot;' u2="e"/>
<hkern k="123" u1='&quot;' u2="d"/>
<hkern k="123" u1='&quot;' u2="c"/>
<hkern k="82" u1='&quot;' u2="a"/>
<hkern k="-20" u1='&quot;' u2="Y"/>
<hkern k="-41" u1='&quot;' u2="W"/>
<hkern k="-41" u1='&quot;' u2="V"/>
<hkern k="-41" u1='&quot;' u2="T"/>
<hkern k="143" u1='&quot;' u2="A"/>
<hkern k="61" u1="&apos;" u2="ü"/>
<hkern k="61" u1="&apos;" u2="û"/>
<hkern k="61" u1="&apos;" u2="ú"/>
<hkern k="61" u1="&apos;" u2="ù"/>
<hkern k="123" u1="&apos;" u2="ø"/>
<hkern k="123" u1="&apos;" u2="ö"/>
<hkern k="123" u1="&apos;" u2="õ"/>
<hkern k="123" u1="&apos;" u2="ô"/>
<hkern k="123" u1="&apos;" u2="ó"/>
<hkern k="123" u1="&apos;" u2="ò"/>
<hkern k="123" u1="&apos;" u2="ë"/>
<hkern k="123" u1="&apos;" u2="ê"/>
<hkern k="123" u1="&apos;" u2="é"/>
<hkern k="123" u1="&apos;" u2="è"/>
<hkern k="123" u1="&apos;" u2="ç"/>
<hkern k="82" u1="&apos;" u2="æ"/>
<hkern k="82" u1="&apos;" u2="å"/>
<hkern k="82" u1="&apos;" u2="ä"/>
<hkern k="82" u1="&apos;" u2="ã"/>
<hkern k="82" u1="&apos;" u2="â"/>
<hkern k="82" u1="&apos;" u2="á"/>
<hkern k="123" u1="&apos;" u2="à"/>
<hkern k="-20" u1="&apos;" u2="Ý"/>
<hkern k="143" u1="&apos;" u2="Å"/>
<hkern k="143" u1="&apos;" u2="Ä"/>
<hkern k="143" u1="&apos;" u2="Ã"/>
<hkern k="143" u1="&apos;" u2="Â"/>
<hkern k="143" u1="&apos;" u2="Á"/>
<hkern k="143" u1="&apos;" u2="À"/>
<hkern k="61" u1="&apos;" u2="u"/>
<hkern k="61" u1="&apos;" u2="s"/>
<hkern k="61" u1="&apos;" u2="r"/>
<hkern k="123" u1="&apos;" u2="q"/>
<hkern k="61" u1="&apos;" u2="p"/>
<hkern k="123" u1="&apos;" u2="o"/>
<hkern k="61" u1="&apos;" u2="n"/>
<hkern k="61" u1="&apos;" u2="m"/>
<hkern k="61" u1="&apos;" u2="g"/>
<hkern k="123" u1="&apos;" u2="e"/>
<hkern k="123" u1="&apos;" u2="d"/>
<hkern k="123" u1="&apos;" u2="c"/>
<hkern k="82" u1="&apos;" u2="a"/>
<hkern k="-20" u1="&apos;" u2="Y"/>
<hkern k="-41" u1="&apos;" u2="W"/>
<hkern k="-41" u1="&apos;" u2="V"/>
<hkern k="-41" u1="&apos;" u2="T"/>
<hkern k="143" u1="&apos;" u2="A"/>
<hkern k="-184" u1="(" u2="J"/>
<hkern k="123" u1="," u2="Ý"/>
<hkern k="41" u1="," u2="Ü"/>
<hkern k="41" u1="," u2="Û"/>
<hkern k="41" u1="," u2="Ú"/>
<hkern k="41" u1="," u2="Ù"/>
<hkern k="102" u1="," u2="Ø"/>
<hkern k="102" u1="," u2="Ö"/>
<hkern k="102" u1="," u2="Õ"/>
<hkern k="102" u1="," u2="Ô"/>
<hkern k="102" u1="," u2="Ó"/>
<hkern k="102" u1="," u2="Ò"/>
<hkern k="102" u1="," u2="Ç"/>
<hkern k="123" u1="," u2="Y"/>
<hkern k="123" u1="," u2="W"/>
<hkern k="123" u1="," u2="V"/>
<hkern k="41" u1="," u2="U"/>
<hkern k="143" u1="," u2="T"/>
<hkern k="102" u1="," u2="Q"/>
<hkern k="102" u1="," u2="O"/>
<hkern k="102" u1="," u2="G"/>
<hkern k="102" u1="," u2="C"/>
<hkern k="82" u1="-" u2="T"/>
<hkern k="123" u1="." u2="Ý"/>
<hkern k="41" u1="." u2="Ü"/>
<hkern k="41" u1="." u2="Û"/>
<hkern k="41" u1="." u2="Ú"/>
<hkern k="41" u1="." u2="Ù"/>
<hkern k="102" u1="." u2="Ø"/>
<hkern k="102" u1="." u2="Ö"/>
<hkern k="102" u1="." u2="Õ"/>
<hkern k="102" u1="." u2="Ô"/>
<hkern k="102" u1="." u2="Ó"/>
<hkern k="102" u1="." u2="Ò"/>
<hkern k="102" u1="." u2="Ç"/>
<hkern k="123" u1="." u2="Y"/>
<hkern k="123" u1="." u2="W"/>
<hkern k="123" u1="." u2="V"/>
<hkern k="41" u1="." u2="U"/>
<hkern k="143" u1="." u2="T"/>
<hkern k="102" u1="." u2="Q"/>
<hkern k="102" u1="." u2="O"/>
<hkern k="102" u1="." u2="G"/>
<hkern k="102" u1="." u2="C"/>
<hkern k="123" u1="A" u2="Ý"/>
<hkern k="41" u1="A" u2="Ø"/>
<hkern k="41" u1="A" u2="Ö"/>
<hkern k="41" u1="A" u2="Õ"/>
<hkern k="41" u1="A" u2="Ô"/>
<hkern k="41" u1="A" u2="Ó"/>
<hkern k="41" u1="A" u2="Ò"/>
<hkern k="41" u1="A" u2="Ç"/>
<hkern k="123" u1="A" u2="Y"/>
<hkern k="82" u1="A" u2="W"/>
<hkern k="82" u1="A" u2="V"/>
<hkern k="143" u1="A" u2="T"/>
<hkern k="41" u1="A" u2="Q"/>
<hkern k="41" u1="A" u2="O"/>
<hkern k="-266" u1="A" u2="J"/>
<hkern k="41" u1="A" u2="G"/>
<hkern k="41" u1="A" u2="C"/>
<hkern k="143" u1="A" u2="&apos;"/>
<hkern k="143" u1="A" u2='&quot;'/>
<hkern k="20" u1="B" u2="Ý"/>
<hkern k="41" u1="B" u2="Å"/>
<hkern k="41" u1="B" u2="Ä"/>
<hkern k="41" u1="B" u2="Ã"/>
<hkern k="41" u1="B" u2="Â"/>
<hkern k="41" u1="B" u2="Á"/>
<hkern k="41" u1="B" u2="À"/>
<hkern k="20" u1="B" u2="Z"/>
<hkern k="20" u1="B" u2="Y"/>
<hkern k="41" u1="B" u2="X"/>
<hkern k="20" u1="B" u2="W"/>
<hkern k="20" u1="B" u2="V"/>
<hkern k="61" u1="B" u2="T"/>
<hkern k="41" u1="B" u2="A"/>
<hkern k="82" u1="B" u2="."/>
<hkern k="82" u1="B" u2=","/>
<hkern k="41" u1="C" u2="Ø"/>
<hkern k="41" u1="C" u2="Ö"/>
<hkern k="41" u1="C" u2="Õ"/>
<hkern k="41" u1="C" u2="Ô"/>
<hkern k="41" u1="C" u2="Ó"/>
<hkern k="41" u1="C" u2="Ò"/>
<hkern k="41" u1="C" u2="Ç"/>
<hkern k="41" u1="C" u2="Q"/>
<hkern k="41" u1="C" u2="O"/>
<hkern k="41" u1="C" u2="G"/>
<hkern k="41" u1="C" u2="C"/>
<hkern k="20" u1="D" u2="Ý"/>
<hkern k="41" u1="D" u2="Å"/>
<hkern k="41" u1="D" u2="Ä"/>
<hkern k="41" u1="D" u2="Ã"/>
<hkern k="41" u1="D" u2="Â"/>
<hkern k="41" u1="D" u2="Á"/>
<hkern k="41" u1="D" u2="À"/>
<hkern k="20" u1="D" u2="Z"/>
<hkern k="20" u1="D" u2="Y"/>
<hkern k="41" u1="D" u2="X"/>
<hkern k="20" u1="D" u2="W"/>
<hkern k="20" u1="D" u2="V"/>
<hkern k="61" u1="D" u2="T"/>
<hkern k="41" u1="D" u2="A"/>
<hkern k="82" u1="D" u2="."/>
<hkern k="82" u1="D" u2=","/>
<hkern k="-123" u1="E" u2="J"/>
<hkern k="41" u1="F" u2="Å"/>
<hkern k="41" u1="F" u2="Ä"/>
<hkern k="41" u1="F" u2="Ã"/>
<hkern k="41" u1="F" u2="Â"/>
<hkern k="41" u1="F" u2="Á"/>
<hkern k="41" u1="F" u2="À"/>
<hkern k="41" u1="F" u2="A"/>
<hkern k="-41" u1="F" u2="?"/>
<hkern k="123" u1="F" u2="."/>
<hkern k="123" u1="F" u2=","/>
<hkern k="41" u1="K" u2="Ø"/>
<hkern k="41" u1="K" u2="Ö"/>
<hkern k="41" u1="K" u2="Õ"/>
<hkern k="41" u1="K" u2="Ô"/>
<hkern k="41" u1="K" u2="Ó"/>
<hkern k="41" u1="K" u2="Ò"/>
<hkern k="41" u1="K" u2="Ç"/>
<hkern k="41" u1="K" u2="Q"/>
<hkern k="41" u1="K" u2="O"/>
<hkern k="41" u1="K" u2="G"/>
<hkern k="41" u1="K" u2="C"/>
<hkern k="61" u1="L" u2="Ý"/>
<hkern k="20" u1="L" u2="Ü"/>
<hkern k="20" u1="L" u2="Û"/>
<hkern k="20" u1="L" u2="Ú"/>
<hkern k="20" u1="L" u2="Ù"/>
<hkern k="41" u1="L" u2="Ø"/>
<hkern k="41" u1="L" u2="Ö"/>
<hkern k="41" u1="L" u2="Õ"/>
<hkern k="41" u1="L" u2="Ô"/>
<hkern k="41" u1="L" u2="Ó"/>
<hkern k="41" u1="L" u2="Ò"/>
<hkern k="41" u1="L" u2="Ç"/>
<hkern k="61" u1="L" u2="Y"/>
<hkern k="41" u1="L" u2="W"/>
<hkern k="41" u1="L" u2="V"/>
<hkern k="20" u1="L" u2="U"/>
<hkern k="41" u1="L" u2="T"/>
<hkern k="41" u1="L" u2="Q"/>
<hkern k="41" u1="L" u2="O"/>
<hkern k="41" u1="L" u2="G"/>
<hkern k="41" u1="L" u2="C"/>
<hkern k="164" u1="L" u2="&apos;"/>
<hkern k="164" u1="L" u2='&quot;'/>
<hkern k="20" u1="O" u2="Ý"/>
<hkern k="41" u1="O" u2="Å"/>
<hkern k="41" u1="O" u2="Ä"/>
<hkern k="41" u1="O" u2="Ã"/>
<hkern k="41" u1="O" u2="Â"/>
<hkern k="41" u1="O" u2="Á"/>
<hkern k="41" u1="O" u2="À"/>
<hkern k="20" u1="O" u2="Z"/>
<hkern k="20" u1="O" u2="Y"/>
<hkern k="41" u1="O" u2="X"/>
<hkern k="20" u1="O" u2="W"/>
<hkern k="20" u1="O" u2="V"/>
<hkern k="61" u1="O" u2="T"/>
<hkern k="41" u1="O" u2="A"/>
<hkern k="82" u1="O" u2="."/>
<hkern k="82" u1="O" u2=","/>
<hkern k="102" u1="P" u2="Å"/>
<hkern k="102" u1="P" u2="Ä"/>
<hkern k="102" u1="P" u2="Ã"/>
<hkern k="102" u1="P" u2="Â"/>
<hkern k="102" u1="P" u2="Á"/>
<hkern k="102" u1="P" u2="À"/>
<hkern k="20" u1="P" u2="Z"/>
<hkern k="41" u1="P" u2="X"/>
<hkern k="102" u1="P" u2="A"/>
<hkern k="266" u1="P" u2="."/>
<hkern k="266" u1="P" u2=","/>
<hkern k="20" u1="Q" u2="Ý"/>
<hkern k="41" u1="Q" u2="Å"/>
<hkern k="41" u1="Q" u2="Ä"/>
<hkern k="41" u1="Q" u2="Ã"/>
<hkern k="41" u1="Q" u2="Â"/>
<hkern k="41" u1="Q" u2="Á"/>
<hkern k="41" u1="Q" u2="À"/>
<hkern k="20" u1="Q" u2="Z"/>
<hkern k="20" u1="Q" u2="Y"/>
<hkern k="41" u1="Q" u2="X"/>
<hkern k="20" u1="Q" u2="W"/>
<hkern k="20" u1="Q" u2="V"/>
<hkern k="61" u1="Q" u2="T"/>
<hkern k="41" u1="Q" u2="A"/>
<hkern k="82" u1="Q" u2="."/>
<hkern k="82" u1="Q" u2=","/>
<hkern k="41" u1="T" u2="ý"/>
<hkern k="102" u1="T" u2="ü"/>
<hkern k="102" u1="T" u2="û"/>
<hkern k="102" u1="T" u2="ú"/>
<hkern k="102" u1="T" u2="ù"/>
<hkern k="143" u1="T" u2="ø"/>
<hkern k="143" u1="T" u2="ö"/>
<hkern k="143" u1="T" u2="õ"/>
<hkern k="143" u1="T" u2="ô"/>
<hkern k="143" u1="T" u2="ó"/>
<hkern k="143" u1="T" u2="ò"/>
<hkern k="143" u1="T" u2="ë"/>
<hkern k="143" u1="T" u2="ê"/>
<hkern k="143" u1="T" u2="é"/>
<hkern k="143" u1="T" u2="è"/>
<hkern k="143" u1="T" u2="ç"/>
<hkern k="164" u1="T" u2="æ"/>
<hkern k="164" u1="T" u2="å"/>
<hkern k="164" u1="T" u2="ä"/>
<hkern k="164" u1="T" u2="ã"/>
<hkern k="164" u1="T" u2="â"/>
<hkern k="164" u1="T" u2="á"/>
<hkern k="143" u1="T" u2="à"/>
<hkern k="41" u1="T" u2="Ø"/>
<hkern k="41" u1="T" u2="Ö"/>
<hkern k="41" u1="T" u2="Õ"/>
<hkern k="41" u1="T" u2="Ô"/>
<hkern k="41" u1="T" u2="Ó"/>
<hkern k="41" u1="T" u2="Ò"/>
<hkern k="41" u1="T" u2="Ç"/>
<hkern k="143" u1="T" u2="Å"/>
<hkern k="143" u1="T" u2="Ä"/>
<hkern k="143" u1="T" u2="Ã"/>
<hkern k="143" u1="T" u2="Â"/>
<hkern k="143" u1="T" u2="Á"/>
<hkern k="143" u1="T" u2="À"/>
<hkern k="82" u1="T" u2="z"/>
<hkern k="41" u1="T" u2="y"/>
<hkern k="41" u1="T" u2="x"/>
<hkern k="41" u1="T" u2="w"/>
<hkern k="41" u1="T" u2="v"/>
<hkern k="102" u1="T" u2="u"/>
<hkern k="123" u1="T" u2="s"/>
<hkern k="102" u1="T" u2="r"/>
<hkern k="143" u1="T" u2="q"/>
<hkern k="102" u1="T" u2="p"/>
<hkern k="143" u1="T" u2="o"/>
<hkern k="102" u1="T" u2="n"/>
<hkern k="102" u1="T" u2="m"/>
<hkern k="143" u1="T" u2="g"/>
<hkern k="143" u1="T" u2="e"/>
<hkern k="143" u1="T" u2="d"/>
<hkern k="143" u1="T" u2="c"/>
<hkern k="164" u1="T" u2="a"/>
<hkern k="-41" u1="T" u2="T"/>
<hkern k="41" u1="T" u2="Q"/>
<hkern k="41" u1="T" u2="O"/>
<hkern k="41" u1="T" u2="G"/>
<hkern k="41" u1="T" u2="C"/>
<hkern k="143" u1="T" u2="A"/>
<hkern k="-41" u1="T" u2="?"/>
<hkern k="123" u1="T" u2="."/>
<hkern k="82" u1="T" u2="-"/>
<hkern k="123" u1="T" u2=","/>
<hkern k="20" u1="U" u2="Å"/>
<hkern k="20" u1="U" u2="Ä"/>
<hkern k="20" u1="U" u2="Ã"/>
<hkern k="20" u1="U" u2="Â"/>
<hkern k="20" u1="U" u2="Á"/>
<hkern k="20" u1="U" u2="À"/>
<hkern k="20" u1="U" u2="A"/>
<hkern k="41" u1="U" u2="."/>
<hkern k="41" u1="U" u2=","/>
<hkern k="20" u1="V" u2="ü"/>
<hkern k="20" u1="V" u2="û"/>
<hkern k="20" u1="V" u2="ú"/>
<hkern k="20" u1="V" u2="ù"/>
<hkern k="41" u1="V" u2="ø"/>
<hkern k="41" u1="V" u2="ö"/>
<hkern k="41" u1="V" u2="õ"/>
<hkern k="41" u1="V" u2="ô"/>
<hkern k="41" u1="V" u2="ó"/>
<hkern k="41" u1="V" u2="ò"/>
<hkern k="41" u1="V" u2="ë"/>
<hkern k="41" u1="V" u2="ê"/>
<hkern k="41" u1="V" u2="é"/>
<hkern k="41" u1="V" u2="è"/>
<hkern k="41" u1="V" u2="ç"/>
<hkern k="41" u1="V" u2="æ"/>
<hkern k="41" u1="V" u2="å"/>
<hkern k="41" u1="V" u2="ä"/>
<hkern k="41" u1="V" u2="ã"/>
<hkern k="41" u1="V" u2="â"/>
<hkern k="41" u1="V" u2="á"/>
<hkern k="41" u1="V" u2="à"/>
<hkern k="20" u1="V" u2="Ø"/>
<hkern k="20" u1="V" u2="Ö"/>
<hkern k="20" u1="V" u2="Õ"/>
<hkern k="20" u1="V" u2="Ô"/>
<hkern k="20" u1="V" u2="Ó"/>
<hkern k="20" u1="V" u2="Ò"/>
<hkern k="20" u1="V" u2="Ç"/>
<hkern k="82" u1="V" u2="Å"/>
<hkern k="82" u1="V" u2="Ä"/>
<hkern k="82" u1="V" u2="Ã"/>
<hkern k="82" u1="V" u2="Â"/>
<hkern k="82" u1="V" u2="Á"/>
<hkern k="82" u1="V" u2="À"/>
<hkern k="20" u1="V" u2="u"/>
<hkern k="20" u1="V" u2="s"/>
<hkern k="20" u1="V" u2="r"/>
<hkern k="41" u1="V" u2="q"/>
<hkern k="20" u1="V" u2="p"/>
<hkern k="41" u1="V" u2="o"/>
<hkern k="20" u1="V" u2="n"/>
<hkern k="20" u1="V" u2="m"/>
<hkern k="20" u1="V" u2="g"/>
<hkern k="41" u1="V" u2="e"/>
<hkern k="41" u1="V" u2="d"/>
<hkern k="41" u1="V" u2="c"/>
<hkern k="41" u1="V" u2="a"/>
<hkern k="20" u1="V" u2="Q"/>
<hkern k="20" u1="V" u2="O"/>
<hkern k="20" u1="V" u2="G"/>
<hkern k="20" u1="V" u2="C"/>
<hkern k="82" u1="V" u2="A"/>
<hkern k="-41" u1="V" u2="?"/>
<hkern k="102" u1="V" u2="."/>
<hkern k="102" u1="V" u2=","/>
<hkern k="20" u1="W" u2="ü"/>
<hkern k="20" u1="W" u2="û"/>
<hkern k="20" u1="W" u2="ú"/>
<hkern k="20" u1="W" u2="ù"/>
<hkern k="41" u1="W" u2="ø"/>
<hkern k="41" u1="W" u2="ö"/>
<hkern k="41" u1="W" u2="õ"/>
<hkern k="41" u1="W" u2="ô"/>
<hkern k="41" u1="W" u2="ó"/>
<hkern k="41" u1="W" u2="ò"/>
<hkern k="41" u1="W" u2="ë"/>
<hkern k="41" u1="W" u2="ê"/>
<hkern k="41" u1="W" u2="é"/>
<hkern k="41" u1="W" u2="è"/>
<hkern k="41" u1="W" u2="ç"/>
<hkern k="41" u1="W" u2="æ"/>
<hkern k="41" u1="W" u2="å"/>
<hkern k="41" u1="W" u2="ä"/>
<hkern k="41" u1="W" u2="ã"/>
<hkern k="41" u1="W" u2="â"/>
<hkern k="41" u1="W" u2="á"/>
<hkern k="41" u1="W" u2="à"/>
<hkern k="20" u1="W" u2="Ø"/>
<hkern k="20" u1="W" u2="Ö"/>
<hkern k="20" u1="W" u2="Õ"/>
<hkern k="20" u1="W" u2="Ô"/>
<hkern k="20" u1="W" u2="Ó"/>
<hkern k="20" u1="W" u2="Ò"/>
<hkern k="20" u1="W" u2="Ç"/>
<hkern k="82" u1="W" u2="Å"/>
<hkern k="82" u1="W" u2="Ä"/>
<hkern k="82" u1="W" u2="Ã"/>
<hkern k="82" u1="W" u2="Â"/>
<hkern k="82" u1="W" u2="Á"/>
<hkern k="82" u1="W" u2="À"/>
<hkern k="20" u1="W" u2="u"/>
<hkern k="20" u1="W" u2="s"/>
<hkern k="20" u1="W" u2="r"/>
<hkern k="41" u1="W" u2="q"/>
<hkern k="20" u1="W" u2="p"/>
<hkern k="41" u1="W" u2="o"/>
<hkern k="20" u1="W" u2="n"/>
<hkern k="20" u1="W" u2="m"/>
<hkern k="20" u1="W" u2="g"/>
<hkern k="41" u1="W" u2="e"/>
<hkern k="41" u1="W" u2="d"/>
<hkern k="41" u1="W" u2="c"/>
<hkern k="41" u1="W" u2="a"/>
<hkern k="20" u1="W" u2="Q"/>
<hkern k="20" u1="W" u2="O"/>
<hkern k="20" u1="W" u2="G"/>
<hkern k="20" u1="W" u2="C"/>
<hkern k="82" u1="W" u2="A"/>
<hkern k="-41" u1="W" u2="?"/>
<hkern k="102" u1="W" u2="."/>
<hkern k="102" u1="W" u2=","/>
<hkern k="41" u1="X" u2="Ø"/>
<hkern k="41" u1="X" u2="Ö"/>
<hkern k="41" u1="X" u2="Õ"/>
<hkern k="41" u1="X" u2="Ô"/>
<hkern k="41" u1="X" u2="Ó"/>
<hkern k="41" u1="X" u2="Ò"/>
<hkern k="41" u1="X" u2="Ç"/>
<hkern k="41" u1="X" u2="Q"/>
<hkern k="41" u1="X" u2="O"/>
<hkern k="41" u1="X" u2="G"/>
<hkern k="41" u1="X" u2="C"/>
<hkern k="61" u1="Y" u2="ü"/>
<hkern k="61" u1="Y" u2="û"/>
<hkern k="61" u1="Y" u2="ú"/>
<hkern k="61" u1="Y" u2="ù"/>
<hkern k="102" u1="Y" u2="ø"/>
<hkern k="102" u1="Y" u2="ö"/>
<hkern k="102" u1="Y" u2="õ"/>
<hkern k="102" u1="Y" u2="ô"/>
<hkern k="102" u1="Y" u2="ó"/>
<hkern k="102" u1="Y" u2="ò"/>
<hkern k="102" u1="Y" u2="ë"/>
<hkern k="102" u1="Y" u2="ê"/>
<hkern k="102" u1="Y" u2="é"/>
<hkern k="102" u1="Y" u2="è"/>
<hkern k="102" u1="Y" u2="ç"/>
<hkern k="102" u1="Y" u2="æ"/>
<hkern k="102" u1="Y" u2="å"/>
<hkern k="102" u1="Y" u2="ä"/>
<hkern k="102" u1="Y" u2="ã"/>
<hkern k="102" u1="Y" u2="â"/>
<hkern k="102" u1="Y" u2="á"/>
<hkern k="102" u1="Y" u2="à"/>
<hkern k="41" u1="Y" u2="Ø"/>
<hkern k="41" u1="Y" u2="Ö"/>
<hkern k="41" u1="Y" u2="Õ"/>
<hkern k="41" u1="Y" u2="Ô"/>
<hkern k="41" u1="Y" u2="Ó"/>
<hkern k="41" u1="Y" u2="Ò"/>
<hkern k="41" u1="Y" u2="Ç"/>
<hkern k="123" u1="Y" u2="Å"/>
<hkern k="123" u1="Y" u2="Ä"/>
<hkern k="123" u1="Y" u2="Ã"/>
<hkern k="123" u1="Y" u2="Â"/>
<hkern k="123" u1="Y" u2="Á"/>
<hkern k="123" u1="Y" u2="À"/>
<hkern k="41" u1="Y" u2="z"/>
<hkern k="61" u1="Y" u2="u"/>
<hkern k="82" u1="Y" u2="s"/>
<hkern k="61" u1="Y" u2="r"/>
<hkern k="102" u1="Y" u2="q"/>
<hkern k="61" u1="Y" u2="p"/>
<hkern k="102" u1="Y" u2="o"/>
<hkern k="61" u1="Y" u2="n"/>
<hkern k="61" u1="Y" u2="m"/>
<hkern k="41" u1="Y" u2="g"/>
<hkern k="102" u1="Y" u2="e"/>
<hkern k="102" u1="Y" u2="d"/>
<hkern k="102" u1="Y" u2="c"/>
<hkern k="102" u1="Y" u2="a"/>
<hkern k="41" u1="Y" u2="Q"/>
<hkern k="41" u1="Y" u2="O"/>
<hkern k="41" u1="Y" u2="G"/>
<hkern k="41" u1="Y" u2="C"/>
<hkern k="123" u1="Y" u2="A"/>
<hkern k="-41" u1="Y" u2="?"/>
<hkern k="123" u1="Y" u2="."/>
<hkern k="123" u1="Y" u2=","/>
<hkern k="20" u1="Z" u2="Ø"/>
<hkern k="20" u1="Z" u2="Ö"/>
<hkern k="20" u1="Z" u2="Õ"/>
<hkern k="20" u1="Z" u2="Ô"/>
<hkern k="20" u1="Z" u2="Ó"/>
<hkern k="20" u1="Z" u2="Ò"/>
<hkern k="20" u1="Z" u2="Ç"/>
<hkern k="20" u1="Z" u2="Q"/>
<hkern k="20" u1="Z" u2="O"/>
<hkern k="20" u1="Z" u2="G"/>
<hkern k="20" u1="Z" u2="C"/>
<hkern k="-184" u1="[" u2="J"/>
<hkern k="20" u1="a" u2="&apos;"/>
<hkern k="20" u1="a" u2='&quot;'/>
<hkern k="41" u1="b" u2="ý"/>
<hkern k="20" u1="b" u2="z"/>
<hkern k="41" u1="b" u2="y"/>
<hkern k="41" u1="b" u2="x"/>
<hkern k="41" u1="b" u2="w"/>
<hkern k="41" u1="b" u2="v"/>
<hkern k="20" u1="b" u2="&apos;"/>
<hkern k="20" u1="b" u2='&quot;'/>
<hkern k="-41" u1="c" u2="&apos;"/>
<hkern k="-41" u1="c" u2='&quot;'/>
<hkern k="41" u1="e" u2="ý"/>
<hkern k="20" u1="e" u2="z"/>
<hkern k="41" u1="e" u2="y"/>
<hkern k="41" u1="e" u2="x"/>
<hkern k="41" u1="e" u2="w"/>
<hkern k="41" u1="e" u2="v"/>
<hkern k="20" u1="e" u2="&apos;"/>
<hkern k="20" u1="e" u2='&quot;'/>
<hkern k="-123" u1="f" u2="&apos;"/>
<hkern k="-123" u1="f" u2='&quot;'/>
<hkern k="20" u1="h" u2="&apos;"/>
<hkern k="20" u1="h" u2='&quot;'/>
<hkern k="41" u1="k" u2="ø"/>
<hkern k="41" u1="k" u2="ö"/>
<hkern k="41" u1="k" u2="õ"/>
<hkern k="41" u1="k" u2="ô"/>
<hkern k="41" u1="k" u2="ó"/>
<hkern k="41" u1="k" u2="ò"/>
<hkern k="41" u1="k" u2="ë"/>
<hkern k="41" u1="k" u2="ê"/>
<hkern k="41" u1="k" u2="é"/>
<hkern k="41" u1="k" u2="è"/>
<hkern k="41" u1="k" u2="ç"/>
<hkern k="41" u1="k" u2="à"/>
<hkern k="41" u1="k" u2="q"/>
<hkern k="41" u1="k" u2="o"/>
<hkern k="41" u1="k" u2="e"/>
<hkern k="41" u1="k" u2="d"/>
<hkern k="41" u1="k" u2="c"/>
<hkern k="20" u1="m" u2="&apos;"/>
<hkern k="20" u1="m" u2='&quot;'/>
<hkern k="20" u1="n" u2="&apos;"/>
<hkern k="20" u1="n" u2='&quot;'/>
<hkern k="41" u1="o" u2="ý"/>
<hkern k="20" u1="o" u2="z"/>
<hkern k="41" u1="o" u2="y"/>
<hkern k="41" u1="o" u2="x"/>
<hkern k="41" u1="o" u2="w"/>
<hkern k="41" u1="o" u2="v"/>
<hkern k="20" u1="o" u2="&apos;"/>
<hkern k="20" u1="o" u2='&quot;'/>
<hkern k="41" u1="p" u2="ý"/>
<hkern k="20" u1="p" u2="z"/>
<hkern k="41" u1="p" u2="y"/>
<hkern k="41" u1="p" u2="x"/>
<hkern k="41" u1="p" u2="w"/>
<hkern k="41" u1="p" u2="v"/>
<hkern k="20" u1="p" u2="&apos;"/>
<hkern k="20" u1="p" u2='&quot;'/>
<hkern k="41" u1="r" u2="ø"/>
<hkern k="41" u1="r" u2="ö"/>
<hkern k="41" u1="r" u2="õ"/>
<hkern k="41" u1="r" u2="ô"/>
<hkern k="41" u1="r" u2="ó"/>
<hkern k="41" u1="r" u2="ò"/>
<hkern k="41" u1="r" u2="ë"/>
<hkern k="41" u1="r" u2="ê"/>
<hkern k="41" u1="r" u2="é"/>
<hkern k="41" u1="r" u2="è"/>
<hkern k="41" u1="r" u2="ç"/>
<hkern k="41" u1="r" u2="æ"/>
<hkern k="41" u1="r" u2="å"/>
<hkern k="41" u1="r" u2="ä"/>
<hkern k="41" u1="r" u2="ã"/>
<hkern k="41" u1="r" u2="â"/>
<hkern k="41" u1="r" u2="á"/>
<hkern k="41" u1="r" u2="à"/>
<hkern k="41" u1="r" u2="q"/>
<hkern k="41" u1="r" u2="o"/>
<hkern k="20" u1="r" u2="g"/>
<hkern k="41" u1="r" u2="e"/>
<hkern k="41" u1="r" u2="d"/>
<hkern k="41" u1="r" u2="c"/>
<hkern k="41" u1="r" u2="a"/>
<hkern k="-82" u1="r" u2="&apos;"/>
<hkern k="-82" u1="r" u2='&quot;'/>
<hkern k="-41" u1="t" u2="&apos;"/>
<hkern k="-41" u1="t" u2='&quot;'/>
<hkern k="-41" u1="v" u2="?"/>
<hkern k="82" u1="v" u2="."/>
<hkern k="82" u1="v" u2=","/>
<hkern k="-82" u1="v" u2="&apos;"/>
<hkern k="-82" u1="v" u2='&quot;'/>
<hkern k="-41" u1="w" u2="?"/>
<hkern k="82" u1="w" u2="."/>
<hkern k="82" u1="w" u2=","/>
<hkern k="-82" u1="w" u2="&apos;"/>
<hkern k="-82" u1="w" u2='&quot;'/>
<hkern k="41" u1="x" u2="ø"/>
<hkern k="41" u1="x" u2="ö"/>
<hkern k="41" u1="x" u2="õ"/>
<hkern k="41" u1="x" u2="ô"/>
<hkern k="41" u1="x" u2="ó"/>
<hkern k="41" u1="x" u2="ò"/>
<hkern k="41" u1="x" u2="ë"/>
<hkern k="41" u1="x" u2="ê"/>
<hkern k="41" u1="x" u2="é"/>
<hkern k="41" u1="x" u2="è"/>
<hkern k="41" u1="x" u2="ç"/>
<hkern k="41" u1="x" u2="à"/>
<hkern k="41" u1="x" u2="q"/>
<hkern k="41" u1="x" u2="o"/>
<hkern k="41" u1="x" u2="e"/>
<hkern k="41" u1="x" u2="d"/>
<hkern k="41" u1="x" u2="c"/>
<hkern k="-41" u1="y" u2="?"/>
<hkern k="82" u1="y" u2="."/>
<hkern k="82" u1="y" u2=","/>
<hkern k="-82" u1="y" u2="&apos;"/>
<hkern k="-82" u1="y" u2='&quot;'/>
<hkern k="-184" u1="{" u2="J"/>
<hkern k="123" u1="À" u2="Ý"/>
<hkern k="41" u1="À" u2="Ø"/>
<hkern k="41" u1="À" u2="Ö"/>
<hkern k="41" u1="À" u2="Õ"/>
<hkern k="41" u1="À" u2="Ô"/>
<hkern k="41" u1="À" u2="Ó"/>
<hkern k="41" u1="À" u2="Ò"/>
<hkern k="41" u1="À" u2="Ç"/>
<hkern k="123" u1="À" u2="Y"/>
<hkern k="82" u1="À" u2="W"/>
<hkern k="82" u1="À" u2="V"/>
<hkern k="143" u1="À" u2="T"/>
<hkern k="41" u1="À" u2="Q"/>
<hkern k="41" u1="À" u2="O"/>
<hkern k="-266" u1="À" u2="J"/>
<hkern k="41" u1="À" u2="G"/>
<hkern k="41" u1="À" u2="C"/>
<hkern k="143" u1="À" u2="&apos;"/>
<hkern k="143" u1="À" u2='&quot;'/>
<hkern k="123" u1="Á" u2="Ý"/>
<hkern k="41" u1="Á" u2="Ø"/>
<hkern k="41" u1="Á" u2="Ö"/>
<hkern k="41" u1="Á" u2="Õ"/>
<hkern k="41" u1="Á" u2="Ô"/>
<hkern k="41" u1="Á" u2="Ó"/>
<hkern k="41" u1="Á" u2="Ò"/>
<hkern k="41" u1="Á" u2="Ç"/>
<hkern k="123" u1="Á" u2="Y"/>
<hkern k="82" u1="Á" u2="W"/>
<hkern k="82" u1="Á" u2="V"/>
<hkern k="143" u1="Á" u2="T"/>
<hkern k="41" u1="Á" u2="Q"/>
<hkern k="41" u1="Á" u2="O"/>
<hkern k="-266" u1="Á" u2="J"/>
<hkern k="41" u1="Á" u2="G"/>
<hkern k="41" u1="Á" u2="C"/>
<hkern k="143" u1="Á" u2="&apos;"/>
<hkern k="143" u1="Á" u2='&quot;'/>
<hkern k="123" u1="Â" u2="Ý"/>
<hkern k="41" u1="Â" u2="Ø"/>
<hkern k="41" u1="Â" u2="Ö"/>
<hkern k="41" u1="Â" u2="Õ"/>
<hkern k="41" u1="Â" u2="Ô"/>
<hkern k="41" u1="Â" u2="Ó"/>
<hkern k="41" u1="Â" u2="Ò"/>
<hkern k="41" u1="Â" u2="Ç"/>
<hkern k="123" u1="Â" u2="Y"/>
<hkern k="82" u1="Â" u2="W"/>
<hkern k="82" u1="Â" u2="V"/>
<hkern k="143" u1="Â" u2="T"/>
<hkern k="41" u1="Â" u2="Q"/>
<hkern k="41" u1="Â" u2="O"/>
<hkern k="-266" u1="Â" u2="J"/>
<hkern k="41" u1="Â" u2="G"/>
<hkern k="41" u1="Â" u2="C"/>
<hkern k="143" u1="Â" u2="&apos;"/>
<hkern k="143" u1="Â" u2='&quot;'/>
<hkern k="123" u1="Ã" u2="Ý"/>
<hkern k="41" u1="Ã" u2="Ø"/>
<hkern k="41" u1="Ã" u2="Ö"/>
<hkern k="41" u1="Ã" u2="Õ"/>
<hkern k="41" u1="Ã" u2="Ô"/>
<hkern k="41" u1="Ã" u2="Ó"/>
<hkern k="41" u1="Ã" u2="Ò"/>
<hkern k="41" u1="Ã" u2="Ç"/>
<hkern k="123" u1="Ã" u2="Y"/>
<hkern k="82" u1="Ã" u2="W"/>
<hkern k="82" u1="Ã" u2="V"/>
<hkern k="143" u1="Ã" u2="T"/>
<hkern k="41" u1="Ã" u2="Q"/>
<hkern k="41" u1="Ã" u2="O"/>
<hkern k="-266" u1="Ã" u2="J"/>
<hkern k="41" u1="Ã" u2="G"/>
<hkern k="41" u1="Ã" u2="C"/>
<hkern k="143" u1="Ã" u2="&apos;"/>
<hkern k="143" u1="Ã" u2='&quot;'/>
<hkern k="123" u1="Ä" u2="Ý"/>
<hkern k="41" u1="Ä" u2="Ø"/>
<hkern k="41" u1="Ä" u2="Ö"/>
<hkern k="41" u1="Ä" u2="Õ"/>
<hkern k="41" u1="Ä" u2="Ô"/>
<hkern k="41" u1="Ä" u2="Ó"/>
<hkern k="41" u1="Ä" u2="Ò"/>
<hkern k="41" u1="Ä" u2="Ç"/>
<hkern k="123" u1="Ä" u2="Y"/>
<hkern k="82" u1="Ä" u2="W"/>
<hkern k="82" u1="Ä" u2="V"/>
<hkern k="143" u1="Ä" u2="T"/>
<hkern k="41" u1="Ä" u2="Q"/>
<hkern k="41" u1="Ä" u2="O"/>
<hkern k="-266" u1="Ä" u2="J"/>
<hkern k="41" u1="Ä" u2="G"/>
<hkern k="41" u1="Ä" u2="C"/>
<hkern k="143" u1="Ä" u2="&apos;"/>
<hkern k="143" u1="Ä" u2='&quot;'/>
<hkern k="123" u1="Å" u2="Ý"/>
<hkern k="41" u1="Å" u2="Ø"/>
<hkern k="41" u1="Å" u2="Ö"/>
<hkern k="41" u1="Å" u2="Õ"/>
<hkern k="41" u1="Å" u2="Ô"/>
<hkern k="41" u1="Å" u2="Ó"/>
<hkern k="41" u1="Å" u2="Ò"/>
<hkern k="41" u1="Å" u2="Ç"/>
<hkern k="123" u1="Å" u2="Y"/>
<hkern k="82" u1="Å" u2="W"/>
<hkern k="82" u1="Å" u2="V"/>
<hkern k="143" u1="Å" u2="T"/>
<hkern k="41" u1="Å" u2="Q"/>
<hkern k="41" u1="Å" u2="O"/>
<hkern k="-266" u1="Å" u2="J"/>
<hkern k="41" u1="Å" u2="G"/>
<hkern k="41" u1="Å" u2="C"/>
<hkern k="143" u1="Å" u2="&apos;"/>
<hkern k="143" u1="Å" u2='&quot;'/>
<hkern k="-123" u1="Æ" u2="J"/>
<hkern k="41" u1="Ç" u2="Ø"/>
<hkern k="41" u1="Ç" u2="Ö"/>
<hkern k="41" u1="Ç" u2="Õ"/>
<hkern k="41" u1="Ç" u2="Ô"/>
<hkern k="41" u1="Ç" u2="Ó"/>
<hkern k="41" u1="Ç" u2="Ò"/>
<hkern k="41" u1="Ç" u2="Ç"/>
<hkern k="41" u1="Ç" u2="Q"/>
<hkern k="41" u1="Ç" u2="O"/>
<hkern k="41" u1="Ç" u2="G"/>
<hkern k="41" u1="Ç" u2="C"/>
<hkern k="-123" u1="È" u2="J"/>
<hkern k="-123" u1="É" u2="J"/>
<hkern k="-123" u1="Ê" u2="J"/>
<hkern k="-123" u1="Ë" u2="J"/>
<hkern k="20" u1="Ð" u2="Ý"/>
<hkern k="41" u1="Ð" u2="Å"/>
<hkern k="41" u1="Ð" u2="Ä"/>
<hkern k="41" u1="Ð" u2="Ã"/>
<hkern k="41" u1="Ð" u2="Â"/>
<hkern k="41" u1="Ð" u2="Á"/>
<hkern k="41" u1="Ð" u2="À"/>
<hkern k="20" u1="Ð" u2="Z"/>
<hkern k="20" u1="Ð" u2="Y"/>
<hkern k="41" u1="Ð" u2="X"/>
<hkern k="20" u1="Ð" u2="W"/>
<hkern k="20" u1="Ð" u2="V"/>
<hkern k="61" u1="Ð" u2="T"/>
<hkern k="41" u1="Ð" u2="A"/>
<hkern k="82" u1="Ð" u2="."/>
<hkern k="82" u1="Ð" u2=","/>
<hkern k="20" u1="Ò" u2="Ý"/>
<hkern k="41" u1="Ò" u2="Å"/>
<hkern k="41" u1="Ò" u2="Ä"/>
<hkern k="41" u1="Ò" u2="Ã"/>
<hkern k="41" u1="Ò" u2="Â"/>
<hkern k="41" u1="Ò" u2="Á"/>
<hkern k="41" u1="Ò" u2="À"/>
<hkern k="20" u1="Ò" u2="Z"/>
<hkern k="20" u1="Ò" u2="Y"/>
<hkern k="41" u1="Ò" u2="X"/>
<hkern k="20" u1="Ò" u2="W"/>
<hkern k="20" u1="Ò" u2="V"/>
<hkern k="61" u1="Ò" u2="T"/>
<hkern k="41" u1="Ò" u2="A"/>
<hkern k="82" u1="Ò" u2="."/>
<hkern k="82" u1="Ò" u2=","/>
<hkern k="20" u1="Ó" u2="Ý"/>
<hkern k="41" u1="Ó" u2="Å"/>
<hkern k="41" u1="Ó" u2="Ä"/>
<hkern k="41" u1="Ó" u2="Ã"/>
<hkern k="41" u1="Ó" u2="Â"/>
<hkern k="41" u1="Ó" u2="Á"/>
<hkern k="41" u1="Ó" u2="À"/>
<hkern k="20" u1="Ó" u2="Z"/>
<hkern k="20" u1="Ó" u2="Y"/>
<hkern k="41" u1="Ó" u2="X"/>
<hkern k="20" u1="Ó" u2="W"/>
<hkern k="20" u1="Ó" u2="V"/>
<hkern k="61" u1="Ó" u2="T"/>
<hkern k="41" u1="Ó" u2="A"/>
<hkern k="82" u1="Ó" u2="."/>
<hkern k="82" u1="Ó" u2=","/>
<hkern k="20" u1="Ô" u2="Ý"/>
<hkern k="41" u1="Ô" u2="Å"/>
<hkern k="41" u1="Ô" u2="Ä"/>
<hkern k="41" u1="Ô" u2="Ã"/>
<hkern k="41" u1="Ô" u2="Â"/>
<hkern k="41" u1="Ô" u2="Á"/>
<hkern k="41" u1="Ô" u2="À"/>
<hkern k="20" u1="Ô" u2="Z"/>
<hkern k="20" u1="Ô" u2="Y"/>
<hkern k="41" u1="Ô" u2="X"/>
<hkern k="20" u1="Ô" u2="W"/>
<hkern k="20" u1="Ô" u2="V"/>
<hkern k="61" u1="Ô" u2="T"/>
<hkern k="41" u1="Ô" u2="A"/>
<hkern k="82" u1="Ô" u2="."/>
<hkern k="82" u1="Ô" u2=","/>
<hkern k="20" u1="Õ" u2="Ý"/>
<hkern k="41" u1="Õ" u2="Å"/>
<hkern k="41" u1="Õ" u2="Ä"/>
<hkern k="41" u1="Õ" u2="Ã"/>
<hkern k="41" u1="Õ" u2="Â"/>
<hkern k="41" u1="Õ" u2="Á"/>
<hkern k="41" u1="Õ" u2="À"/>
<hkern k="20" u1="Õ" u2="Z"/>
<hkern k="20" u1="Õ" u2="Y"/>
<hkern k="41" u1="Õ" u2="X"/>
<hkern k="20" u1="Õ" u2="W"/>
<hkern k="20" u1="Õ" u2="V"/>
<hkern k="61" u1="Õ" u2="T"/>
<hkern k="41" u1="Õ" u2="A"/>
<hkern k="82" u1="Õ" u2="."/>
<hkern k="82" u1="Õ" u2=","/>
<hkern k="20" u1="Ö" u2="Ý"/>
<hkern k="41" u1="Ö" u2="Å"/>
<hkern k="41" u1="Ö" u2="Ä"/>
<hkern k="41" u1="Ö" u2="Ã"/>
<hkern k="41" u1="Ö" u2="Â"/>
<hkern k="41" u1="Ö" u2="Á"/>
<hkern k="41" u1="Ö" u2="À"/>
<hkern k="20" u1="Ö" u2="Z"/>
<hkern k="20" u1="Ö" u2="Y"/>
<hkern k="41" u1="Ö" u2="X"/>
<hkern k="20" u1="Ö" u2="W"/>
<hkern k="20" u1="Ö" u2="V"/>
<hkern k="61" u1="Ö" u2="T"/>
<hkern k="41" u1="Ö" u2="A"/>
<hkern k="82" u1="Ö" u2="."/>
<hkern k="82" u1="Ö" u2=","/>
<hkern k="20" u1="Ø" u2="Ý"/>
<hkern k="41" u1="Ø" u2="Å"/>
<hkern k="41" u1="Ø" u2="Ä"/>
<hkern k="41" u1="Ø" u2="Ã"/>
<hkern k="41" u1="Ø" u2="Â"/>
<hkern k="41" u1="Ø" u2="Á"/>
<hkern k="41" u1="Ø" u2="À"/>
<hkern k="20" u1="Ø" u2="Z"/>
<hkern k="20" u1="Ø" u2="Y"/>
<hkern k="41" u1="Ø" u2="X"/>
<hkern k="20" u1="Ø" u2="W"/>
<hkern k="20" u1="Ø" u2="V"/>
<hkern k="61" u1="Ø" u2="T"/>
<hkern k="41" u1="Ø" u2="A"/>
<hkern k="82" u1="Ø" u2="."/>
<hkern k="82" u1="Ø" u2=","/>
<hkern k="20" u1="Ù" u2="Å"/>
<hkern k="20" u1="Ù" u2="Ä"/>
<hkern k="20" u1="Ù" u2="Ã"/>
<hkern k="20" u1="Ù" u2="Â"/>
<hkern k="20" u1="Ù" u2="Á"/>
<hkern k="20" u1="Ù" u2="À"/>
<hkern k="20" u1="Ù" u2="A"/>
<hkern k="41" u1="Ù" u2="."/>
<hkern k="41" u1="Ù" u2=","/>
<hkern k="20" u1="Ú" u2="Å"/>
<hkern k="20" u1="Ú" u2="Ä"/>
<hkern k="20" u1="Ú" u2="Ã"/>
<hkern k="20" u1="Ú" u2="Â"/>
<hkern k="20" u1="Ú" u2="Á"/>
<hkern k="20" u1="Ú" u2="À"/>
<hkern k="20" u1="Ú" u2="A"/>
<hkern k="41" u1="Ú" u2="."/>
<hkern k="41" u1="Ú" u2=","/>
<hkern k="20" u1="Û" u2="Å"/>
<hkern k="20" u1="Û" u2="Ä"/>
<hkern k="20" u1="Û" u2="Ã"/>
<hkern k="20" u1="Û" u2="Â"/>
<hkern k="20" u1="Û" u2="Á"/>
<hkern k="20" u1="Û" u2="À"/>
<hkern k="20" u1="Û" u2="A"/>
<hkern k="41" u1="Û" u2="."/>
<hkern k="41" u1="Û" u2=","/>
<hkern k="20" u1="Ü" u2="Å"/>
<hkern k="20" u1="Ü" u2="Ä"/>
<hkern k="20" u1="Ü" u2="Ã"/>
<hkern k="20" u1="Ü" u2="Â"/>
<hkern k="20" u1="Ü" u2="Á"/>
<hkern k="20" u1="Ü" u2="À"/>
<hkern k="20" u1="Ü" u2="A"/>
<hkern k="41" u1="Ü" u2="."/>
<hkern k="41" u1="Ü" u2=","/>
<hkern k="61" u1="Ý" u2="ü"/>
<hkern k="61" u1="Ý" u2="û"/>
<hkern k="61" u1="Ý" u2="ú"/>
<hkern k="61" u1="Ý" u2="ù"/>
<hkern k="102" u1="Ý" u2="ø"/>
<hkern k="102" u1="Ý" u2="ö"/>
<hkern k="102" u1="Ý" u2="õ"/>
<hkern k="102" u1="Ý" u2="ô"/>
<hkern k="102" u1="Ý" u2="ó"/>
<hkern k="102" u1="Ý" u2="ò"/>
<hkern k="102" u1="Ý" u2="ë"/>
<hkern k="102" u1="Ý" u2="ê"/>
<hkern k="102" u1="Ý" u2="é"/>
<hkern k="102" u1="Ý" u2="è"/>
<hkern k="102" u1="Ý" u2="ç"/>
<hkern k="102" u1="Ý" u2="æ"/>
<hkern k="102" u1="Ý" u2="å"/>
<hkern k="102" u1="Ý" u2="ä"/>
<hkern k="102" u1="Ý" u2="ã"/>
<hkern k="102" u1="Ý" u2="â"/>
<hkern k="102" u1="Ý" u2="á"/>
<hkern k="102" u1="Ý" u2="à"/>
<hkern k="41" u1="Ý" u2="Ø"/>
<hkern k="41" u1="Ý" u2="Ö"/>
<hkern k="41" u1="Ý" u2="Õ"/>
<hkern k="41" u1="Ý" u2="Ô"/>
<hkern k="41" u1="Ý" u2="Ó"/>
<hkern k="41" u1="Ý" u2="Ò"/>
<hkern k="41" u1="Ý" u2="Ç"/>
<hkern k="123" u1="Ý" u2="Å"/>
<hkern k="123" u1="Ý" u2="Ä"/>
<hkern k="123" u1="Ý" u2="Ã"/>
<hkern k="123" u1="Ý" u2="Â"/>
<hkern k="123" u1="Ý" u2="Á"/>
<hkern k="123" u1="Ý" u2="À"/>
<hkern k="41" u1="Ý" u2="z"/>
<hkern k="61" u1="Ý" u2="u"/>
<hkern k="82" u1="Ý" u2="s"/>
<hkern k="61" u1="Ý" u2="r"/>
<hkern k="102" u1="Ý" u2="q"/>
<hkern k="61" u1="Ý" u2="p"/>
<hkern k="102" u1="Ý" u2="o"/>
<hkern k="61" u1="Ý" u2="n"/>
<hkern k="61" u1="Ý" u2="m"/>
<hkern k="41" u1="Ý" u2="g"/>
<hkern k="102" u1="Ý" u2="e"/>
<hkern k="102" u1="Ý" u2="d"/>
<hkern k="102" u1="Ý" u2="c"/>
<hkern k="102" u1="Ý" u2="a"/>
<hkern k="41" u1="Ý" u2="Q"/>
<hkern k="41" u1="Ý" u2="O"/>
<hkern k="41" u1="Ý" u2="G"/>
<hkern k="41" u1="Ý" u2="C"/>
<hkern k="123" u1="Ý" u2="A"/>
<hkern k="-41" u1="Ý" u2="?"/>
<hkern k="123" u1="Ý" u2="."/>
<hkern k="123" u1="Ý" u2=","/>
<hkern k="102" u1="Þ" u2="Å"/>
<hkern k="102" u1="Þ" u2="Ä"/>
<hkern k="102" u1="Þ" u2="Ã"/>
<hkern k="102" u1="Þ" u2="Â"/>
<hkern k="102" u1="Þ" u2="Á"/>
<hkern k="102" u1="Þ" u2="À"/>
<hkern k="20" u1="Þ" u2="Z"/>
<hkern k="41" u1="Þ" u2="X"/>
<hkern k="102" u1="Þ" u2="A"/>
<hkern k="266" u1="Þ" u2="."/>
<hkern k="266" u1="Þ" u2=","/>
<hkern k="20" u1="à" u2="&apos;"/>
<hkern k="20" u1="à" u2='&quot;'/>
<hkern k="20" u1="á" u2="&apos;"/>
<hkern k="20" u1="á" u2='&quot;'/>
<hkern k="20" u1="â" u2="&apos;"/>
<hkern k="20" u1="â" u2='&quot;'/>
<hkern k="20" u1="ã" u2="&apos;"/>
<hkern k="20" u1="ã" u2='&quot;'/>
<hkern k="20" u1="ä" u2="&apos;"/>
<hkern k="20" u1="ä" u2='&quot;'/>
<hkern k="20" u1="å" u2="&apos;"/>
<hkern k="20" u1="å" u2='&quot;'/>
<hkern k="41" u1="è" u2="ý"/>
<hkern k="20" u1="è" u2="z"/>
<hkern k="41" u1="è" u2="y"/>
<hkern k="41" u1="è" u2="x"/>
<hkern k="41" u1="è" u2="w"/>
<hkern k="41" u1="è" u2="v"/>
<hkern k="20" u1="è" u2="&apos;"/>
<hkern k="20" u1="è" u2='&quot;'/>
<hkern k="41" u1="é" u2="ý"/>
<hkern k="20" u1="é" u2="z"/>
<hkern k="41" u1="é" u2="y"/>
<hkern k="41" u1="é" u2="x"/>
<hkern k="41" u1="é" u2="w"/>
<hkern k="41" u1="é" u2="v"/>
<hkern k="20" u1="é" u2="&apos;"/>
<hkern k="20" u1="é" u2='&quot;'/>
<hkern k="41" u1="ê" u2="ý"/>
<hkern k="20" u1="ê" u2="z"/>
<hkern k="41" u1="ê" u2="y"/>
<hkern k="41" u1="ê" u2="x"/>
<hkern k="41" u1="ê" u2="w"/>
<hkern k="41" u1="ê" u2="v"/>
<hkern k="20" u1="ê" u2="&apos;"/>
<hkern k="20" u1="ê" u2='&quot;'/>
<hkern k="41" u1="ë" u2="ý"/>
<hkern k="20" u1="ë" u2="z"/>
<hkern k="41" u1="ë" u2="y"/>
<hkern k="41" u1="ë" u2="x"/>
<hkern k="41" u1="ë" u2="w"/>
<hkern k="41" u1="ë" u2="v"/>
<hkern k="20" u1="ë" u2="&apos;"/>
<hkern k="20" u1="ë" u2='&quot;'/>
<hkern k="41" u1="ð" u2="ý"/>
<hkern k="20" u1="ð" u2="z"/>
<hkern k="41" u1="ð" u2="y"/>
<hkern k="41" u1="ð" u2="x"/>
<hkern k="41" u1="ð" u2="w"/>
<hkern k="41" u1="ð" u2="v"/>
<hkern k="20" u1="ð" u2="&apos;"/>
<hkern k="20" u1="ð" u2='&quot;'/>
<hkern k="41" u1="ò" u2="ý"/>
<hkern k="20" u1="ò" u2="z"/>
<hkern k="41" u1="ò" u2="y"/>
<hkern k="41" u1="ò" u2="x"/>
<hkern k="41" u1="ò" u2="w"/>
<hkern k="41" u1="ò" u2="v"/>
<hkern k="20" u1="ò" u2="&apos;"/>
<hkern k="20" u1="ò" u2='&quot;'/>
<hkern k="41" u1="ó" u2="ý"/>
<hkern k="20" u1="ó" u2="z"/>
<hkern k="41" u1="ó" u2="y"/>
<hkern k="41" u1="ó" u2="x"/>
<hkern k="41" u1="ó" u2="w"/>
<hkern k="41" u1="ó" u2="v"/>
<hkern k="20" u1="ó" u2="&apos;"/>
<hkern k="20" u1="ó" u2='&quot;'/>
<hkern k="41" u1="ô" u2="ý"/>
<hkern k="20" u1="ô" u2="z"/>
<hkern k="41" u1="ô" u2="y"/>
<hkern k="41" u1="ô" u2="x"/>
<hkern k="41" u1="ô" u2="w"/>
<hkern k="41" u1="ô" u2="v"/>
<hkern k="20" u1="ô" u2="&apos;"/>
<hkern k="20" u1="ô" u2='&quot;'/>
<hkern k="41" u1="ö" u2="&apos;"/>
<hkern k="41" u1="ö" u2='&quot;'/>
<hkern k="41" u1="ø" u2="ý"/>
<hkern k="20" u1="ø" u2="z"/>
<hkern k="41" u1="ø" u2="y"/>
<hkern k="41" u1="ø" u2="x"/>
<hkern k="41" u1="ø" u2="w"/>
<hkern k="41" u1="ø" u2="v"/>
<hkern k="20" u1="ø" u2="&apos;"/>
<hkern k="20" u1="ø" u2='&quot;'/>
<hkern k="-41" u1="ý" u2="?"/>
<hkern k="82" u1="ý" u2="."/>
<hkern k="82" u1="ý" u2=","/>
<hkern k="-82" u1="ý" u2="&apos;"/>
<hkern k="-82" u1="ý" u2='&quot;'/>
<hkern k="41" u1="þ" u2="ý"/>
<hkern k="20" u1="þ" u2="z"/>
<hkern k="41" u1="þ" u2="y"/>
<hkern k="41" u1="þ" u2="x"/>
<hkern k="41" u1="þ" u2="w"/>
<hkern k="41" u1="þ" u2="v"/>
<hkern k="20" u1="þ" u2="&apos;"/>
<hkern k="20" u1="þ" u2='&quot;'/>
</font>
</defs>
</svg>
